<?xml version="1.0" encoding="UTF-8" standalone="no"?>
<!-- Created with Inkscape (http://www.inkscape.org/) -->

<svg
   xmlns:dc="http://purl.org/dc/elements/1.1/"
   xmlns:cc="http://creativecommons.org/ns#"
   xmlns:rdf="http://www.w3.org/1999/02/22-rdf-syntax-ns#"
   xmlns:svg="http://www.w3.org/2000/svg"
   xmlns="http://www.w3.org/2000/svg"
   xmlns:sodipodi="http://sodipodi.sourceforge.net/DTD/sodipodi-0.dtd"
   xmlns:inkscape="http://www.inkscape.org/namespaces/inkscape"
   width="640"
   height="480"
   id="svg2"
   version="1.1"
   inkscape:version="0.48.3.1 r9886"
   sodipodi:docname="sample.svg">
  <defs
     id="defs4">
    <marker
       inkscape:stockid="Arrow1Lend"
       orient="auto"
       refY="0.0"
       refX="0.0"
       id="Arrow1Lend"
       style="overflow:visible;">
      <path
         id="path3807"
         d="M 0.0,0.0 L 5.0,-5.0 L -12.5,0.0 L 5.0,5.0 L 0.0,0.0 z "
         style="fill-rule:evenodd;stroke:#000000;stroke-width:1.0pt;"
         transform="scale(0.8) rotate(180) translate(12.5,0)" />
    </marker>
    <marker
       inkscape:stockid="Arrow1Lstart"
       orient="auto"
       refY="0.0"
       refX="0.0"
       id="Arrow1Lstart"
       style="overflow:visible">
      <path
         id="path3804"
         d="M 0.0,0.0 L 5.0,-5.0 L -12.5,0.0 L 5.0,5.0 L 0.0,0.0 z "
         style="fill-rule:evenodd;stroke:#000000;stroke-width:1.0pt"
         transform="scale(0.8) translate(12.5,0)" />
    </marker>
    <inkscape:perspective
       sodipodi:type="inkscape:persp3d"
       inkscape:vp_x="-320 : 80 : 0"
       inkscape:vp_y="6.1230318e-14 : 1000 : 0"
       inkscape:vp_z="329.84845 : 0 : 0"
       inkscape:persp3d-origin="320 : 160 : 1"
       id="perspective4449" />
    <marker
       style="overflow:visible"
       id="DistanceEnd"
       refX="0.0"
       refY="0.0"
       orient="auto"
       inkscape:stockid="DistanceEnd">
      <g
         id="g2301">
        <path
           style="fill:none;stroke:#ffffff;stroke-width:1.15;stroke-linecap:square"
           d="M 0,0 L -2,0"
           id="path2316" />
        <path
           style="fill:#000000;fill-rule:evenodd;stroke:none"
           d="M 0,0 L -13,4 L -9,0 -13,-4 L 0,0 z "
           id="path2312" />
        <path
           style="fill:none;stroke:#000000;stroke-width:1;stroke-linecap:square"
           d="M 0,-4 L 0,40"
           id="path2314" />
      </g>
    </marker>
    <marker
       style="overflow:visible"
       id="DistanceStart"
       refX="0.0"
       refY="0.0"
       orient="auto"
       inkscape:stockid="DistanceStart">
      <g
         id="g2300">
        <path
           style="fill:none;stroke:#ffffff;stroke-width:1.15;stroke-linecap:square"
           d="M 0,0 L 2,0"
           id="path2306" />
        <path
           style="fill:#000000;fill-rule:evenodd;stroke:none"
           d="M 0,0 L 13,4 L 9,0 13,-4 L 0,0 z "
           id="path2302" />
        <path
           style="fill:none;stroke:#000000;stroke-width:1;stroke-linecap:square"
           d="M 0,-4 L 0,40"
           id="path2304" />
      </g>
    </marker>
    <marker
       inkscape:stockid="Arrow1Lend"
       orient="auto"
       refY="0"
       refX="0"
       id="Arrow1Lend-5"
       style="overflow:visible">
      <path
         inkscape:connector-curvature="0"
         id="path3807-1"
         d="M 0,0 5,-5 -12.5,0 5,5 0,0 z"
         style="fill-rule:evenodd;stroke:#000000;stroke-width:1pt"
         transform="matrix(-0.8,0,0,-0.8,-10,0)" />
    </marker>
  </defs>
  <sodipodi:namedview
     id="base"
     pagecolor="#ffffff"
     bordercolor="#666666"
     borderopacity="1.0"
     inkscape:pageopacity="0.0"
     inkscape:pageshadow="2"
     inkscape:zoom="0.71130071"
     inkscape:cx="179.4148"
     inkscape:cy="214.21441"
     inkscape:document-units="px"
     inkscape:current-layer="layer1"
     showgrid="true"
     showguides="true"
     inkscape:guide-bbox="true"
     inkscape:window-width="1309"
     inkscape:window-height="748"
     inkscape:window-x="55"
     inkscape:window-y="-3"
     inkscape:window-maximized="1">
    <inkscape:grid
       type="xygrid"
       id="grid2985"
       empspacing="5"
       visible="true"
       enabled="true"
       snapvisiblegridlinesonly="true" />
  </sodipodi:namedview>
  <metadata
     id="metadata7">
    <rdf:RDF>
      <cc:Work
         rdf:about="">
        <dc:format>image/svg+xml</dc:format>
        <dc:type
           rdf:resource="http://purl.org/dc/dcmitype/StillImage" />
        <dc:title />
      </cc:Work>
    </rdf:RDF>
  </metadata>
  <g
     inkscape:label="Layer 1"
     inkscape:groupmode="layer"
     id="layer1"
     transform="translate(0,-572.36218)">
    <path
       style="fill:#7f7fa0;fill-opacity:1;stroke:#000000;stroke-width:2;stroke-linecap:butt;stroke-linejoin:miter;stroke-miterlimit:4;stroke-opacity:1;stroke-dasharray:none"
       d="m 259.99998,791.56219 -219.999984,-19.2 0,155.99999 171.999994,0 0,4 -171.999994,0 0,40 219.999984,0 0,-80 -171.99999,0 0,-4 171.99999,0 z"
       id="path2991"
       inkscape:connector-curvature="0"
       sodipodi:nodetypes="ccccccccccccc" />
    <path
       style="fill:none;stroke:#000000;stroke-width:2;stroke-linecap:butt;stroke-linejoin:miter;stroke-miterlimit:4;stroke-opacity:1;stroke-dasharray:2, 4;stroke-dashoffset:0"
       d="m 39.999996,772.36218 220.000004,0"
       id="path3761"
       inkscape:connector-curvature="0"
       sodipodi:nodetypes="cc" />
    <text
       xml:space="preserve"
       style="font-size:16px;font-style:normal;font-weight:normal;text-align:center;line-height:125%;letter-spacing:0px;word-spacing:0px;text-anchor:middle;fill:#000000;fill-opacity:1;stroke:none;font-family:Sans"
       x="170"
       y="762.36218"
       id="text3763"
       sodipodi:linespacing="125%"><tspan
         sodipodi:role="line"
         id="tspan3765"
         x="170"
         y="762.36218">α</tspan></text>
    <path
       sodipodi:type="arc"
       style="fill:none;stroke:#000000;stroke-width:0.5;stroke-linecap:round;stroke-miterlimit:4;stroke-opacity:1;stroke-dasharray:none;stroke-dashoffset:0"
       id="path3769"
       sodipodi:cx="100"
       sodipodi:cy="380"
       sodipodi:rx="60"
       sodipodi:ry="60"
       d="m 100,320 c 1.74561,0 3.49038,0.0762 5.22934,0.22832"
       transform="matrix(0,2,-2,0,800,572.36218)"
       sodipodi:start="4.712389"
       sodipodi:end="4.7996554"
       sodipodi:open="true" />
    <path
       style="fill:none;stroke:#000000;stroke-width:1px;stroke-linecap:butt;stroke-linejoin:miter;stroke-opacity:1;marker-start:url(#DistanceStart);marker-end:url(#DistanceEnd)"
       d="m 260,1022.3622 -220.000004,0"
       id="path3798"
       inkscape:connector-curvature="0" />
    <text
       xml:space="preserve"
       style="font-size:16px;font-style:normal;font-weight:normal;text-align:center;line-height:125%;letter-spacing:0px;word-spacing:0px;text-anchor:middle;fill:#000000;fill-opacity:1;stroke:none;font-family:Sans"
       x="150"
       y="1002.3622"
       id="text4445"
       sodipodi:linespacing="125%"><tspan
         sodipodi:role="line"
         id="tspan4447"
         x="150"
         y="1002.3622">L</tspan></text>
    <text
       xml:space="preserve"
       style="font-size:40px;font-style:normal;font-weight:normal;text-align:center;line-height:125%;letter-spacing:0px;word-spacing:0px;text-anchor:middle;fill:#000000;fill-opacity:1;stroke:none;font-family:Sans"
       x="69.999992"
       y="742.36218"
       id="text4475"
       sodipodi:linespacing="125%"><tspan
         sodipodi:role="line"
         id="tspan4477"
         x="69.999992"
         y="742.36218"
         style="font-size:16px">X-rays</tspan></text>
    <path
       style="fill:none;stroke:#000000;stroke-width:1px;stroke-linecap:butt;stroke-linejoin:miter;stroke-opacity:1;marker-start:none;marker-end:url(#Arrow1Lend)"
       d="m 20,752.36218 110,0"
       id="path4481"
       inkscape:connector-curvature="0" />
    <g
       id="g5947"
       transform="translate(20,20.00002)">
      <path
         sodipodi:nodetypes="ccccc"
         inkscape:connector-curvature="0"
         id="path4465"
         d="m 340,812.36218 140,39.99998 0,160.00004 -140,-40.00002 z"
         style="fill:#7f7fa0;fill-opacity:1;stroke:#000000;stroke-width:2;stroke-linecap:butt;stroke-linejoin:miter;stroke-miterlimit:4;stroke-opacity:1;stroke-dasharray:none" />
      <path
         sodipodi:nodetypes="ccccc"
         inkscape:connector-curvature="0"
         id="path4467"
         d="m 600,972.36218 0,-180 -120,59.99998 0,160.00004 z"
         style="fill:#686888;fill-opacity:1;stroke:#000000;stroke-width:2;stroke-linecap:butt;stroke-linejoin:miter;stroke-miterlimit:4;stroke-opacity:1;stroke-dasharray:none" />
      <path
         sodipodi:nodetypes="ccccc"
         inkscape:connector-curvature="0"
         id="path4469"
         d="m 600,792.36218 -140,-40 -120,60 140,39.99998 z"
         style="fill:#bebed2;fill-opacity:1;stroke:#000000;stroke-width:2;stroke-linecap:butt;stroke-linejoin:miter;stroke-miterlimit:4;stroke-opacity:1;stroke-dasharray:none" />
      <path
         sodipodi:nodetypes="cc"
         inkscape:connector-curvature="0"
         id="path4473"
         d="m 495,977.36218 105,-35"
         style="fill:none;stroke:#000000;stroke-width:4;stroke-linecap:butt;stroke-linejoin:miter;stroke-miterlimit:4;stroke-opacity:0.49803922;stroke-dasharray:none" />
      <path
         inkscape:connector-curvature="0"
         id="path4479"
         d="m 480,952.36218 105,-35"
         style="fill:none;stroke:#000000;stroke-width:4;stroke-linecap:butt;stroke-linejoin:miter;stroke-miterlimit:4;stroke-opacity:0.49803922;stroke-dasharray:none" />
      <g
         id="g4654">
        <path
           style="fill:none;stroke:#000040;stroke-width:0.5;stroke-linecap:butt;stroke-linejoin:miter;stroke-miterlimit:4;stroke-opacity:0.25098039;stroke-dasharray:none"
           d="m 430,767.36218 140,40"
           id="path4483-2-3-2"
           inkscape:connector-curvature="0"
           sodipodi:nodetypes="cc" />
        <path
           style="fill:none;stroke:#000040;stroke-width:0.5;stroke-linecap:butt;stroke-linejoin:miter;stroke-miterlimit:4;stroke-opacity:0.25098039;stroke-dasharray:none"
           d="m 400,782.36218 140,40"
           id="path4483-2-3-6"
           inkscape:connector-curvature="0"
           sodipodi:nodetypes="cc" />
        <path
           style="fill:none;stroke:#000040;stroke-width:0.5;stroke-linecap:butt;stroke-linejoin:miter;stroke-miterlimit:4;stroke-opacity:0.25098039;stroke-dasharray:none"
           d="m 370,797.36218 140,40"
           id="path4483-2-3-4"
           inkscape:connector-curvature="0"
           sodipodi:nodetypes="cc" />
      </g>
      <path
         sodipodi:nodetypes="cc"
         inkscape:connector-curvature="0"
         id="path4471"
         d="m 340,912.36218 140,39.99998"
         style="fill:none;stroke:#000000;stroke-width:4;stroke-linecap:butt;stroke-linejoin:miter;stroke-miterlimit:4;stroke-opacity:0.37647059;stroke-dasharray:none" />
      <g
         transform="translate(-305,35)"
         id="g4850">
        <path
           style="fill:none;stroke:#000040;stroke-width:0.5;stroke-linecap:butt;stroke-linejoin:miter;stroke-miterlimit:4;stroke-opacity:0.50196078;stroke-dasharray:none"
           d="m 645,812.36218 140,40"
           id="path4483-2-50"
           inkscape:connector-curvature="0"
           sodipodi:nodetypes="cc" />
        <path
           style="fill:none;stroke:#000040;stroke-width:0.5;stroke-linecap:butt;stroke-linejoin:miter;stroke-miterlimit:4;stroke-opacity:0.50196078;stroke-dasharray:none"
           d="m 645,822.36218 140,40"
           id="path4483-2-0-5"
           inkscape:connector-curvature="0"
           sodipodi:nodetypes="cc" />
        <path
           style="fill:none;stroke:#000040;stroke-width:0.5;stroke-linecap:butt;stroke-linejoin:miter;stroke-miterlimit:4;stroke-opacity:0.50196078;stroke-dasharray:none"
           d="m 645,832.36218 140,40"
           id="path4483-2-2-6"
           inkscape:connector-curvature="0"
           sodipodi:nodetypes="cc" />
        <path
           style="fill:none;stroke:#000040;stroke-width:0.5;stroke-linecap:butt;stroke-linejoin:miter;stroke-miterlimit:4;stroke-opacity:0.50196078;stroke-dasharray:none"
           d="m 645,842.36218 140,40"
           id="path4483-2-5-0"
           inkscape:connector-curvature="0"
           sodipodi:nodetypes="cc" />
        <path
           style="fill:none;stroke:#000040;stroke-width:0.5;stroke-linecap:butt;stroke-linejoin:miter;stroke-miterlimit:4;stroke-opacity:0.50196078;stroke-dasharray:none"
           d="m 645,837.36218 140,40"
           id="path4483-2-29-9"
           inkscape:connector-curvature="0"
           sodipodi:nodetypes="cc" />
        <path
           style="fill:none;stroke:#000040;stroke-width:0.5;stroke-linecap:butt;stroke-linejoin:miter;stroke-miterlimit:4;stroke-opacity:0.50196078;stroke-dasharray:none"
           d="m 645,827.36218 140,40"
           id="path4483-2-298-1"
           inkscape:connector-curvature="0"
           sodipodi:nodetypes="cc" />
        <path
           style="fill:none;stroke:#000040;stroke-width:0.5;stroke-linecap:butt;stroke-linejoin:miter;stroke-miterlimit:4;stroke-opacity:0.50196078;stroke-dasharray:none"
           d="m 645,817.36218 140,40"
           id="path4483-2-3-25"
           inkscape:connector-curvature="0"
           sodipodi:nodetypes="cc" />
        <path
           style="fill:none;stroke:#000040;stroke-width:0.5;stroke-linecap:butt;stroke-linejoin:miter;stroke-miterlimit:4;stroke-opacity:0.50196078;stroke-dasharray:none"
           d="m 645,882.36218 140,40"
           id="path4483-2-00"
           inkscape:connector-curvature="0"
           sodipodi:nodetypes="cc" />
        <path
           style="fill:none;stroke:#000040;stroke-width:0.5;stroke-linecap:butt;stroke-linejoin:miter;stroke-miterlimit:4;stroke-opacity:0.50196078;stroke-dasharray:none"
           d="m 645,892.36218 140,40"
           id="path4483-2-0-6"
           inkscape:connector-curvature="0"
           sodipodi:nodetypes="cc" />
        <path
           style="fill:none;stroke:#000040;stroke-width:0.5;stroke-linecap:butt;stroke-linejoin:miter;stroke-miterlimit:4;stroke-opacity:0.50196078;stroke-dasharray:none"
           d="m 645,902.36218 140,40"
           id="path4483-2-2-3"
           inkscape:connector-curvature="0"
           sodipodi:nodetypes="cc" />
        <path
           style="fill:none;stroke:#000040;stroke-width:0.5;stroke-linecap:butt;stroke-linejoin:miter;stroke-miterlimit:4;stroke-opacity:0.50196078;stroke-dasharray:none"
           d="m 645,912.36218 140,40"
           id="path4483-2-5-9"
           inkscape:connector-curvature="0"
           sodipodi:nodetypes="cc" />
        <path
           style="fill:none;stroke:#000040;stroke-width:0.5;stroke-linecap:butt;stroke-linejoin:miter;stroke-miterlimit:4;stroke-opacity:0.50196078;stroke-dasharray:none"
           d="m 645,907.36218 140,40"
           id="path4483-2-29-8"
           inkscape:connector-curvature="0"
           sodipodi:nodetypes="cc" />
        <path
           style="fill:none;stroke:#000040;stroke-width:0.5;stroke-linecap:butt;stroke-linejoin:miter;stroke-miterlimit:4;stroke-opacity:0.50196078;stroke-dasharray:none"
           d="m 645,897.36218 140,40"
           id="path4483-2-298-6"
           inkscape:connector-curvature="0"
           sodipodi:nodetypes="cc" />
        <path
           style="fill:none;stroke:#000040;stroke-width:0.5;stroke-linecap:butt;stroke-linejoin:miter;stroke-miterlimit:4;stroke-opacity:0.50196078;stroke-dasharray:none"
           d="m 645,887.36218 140,40"
           id="path4483-2-3-24"
           inkscape:connector-curvature="0"
           sodipodi:nodetypes="cc" />
        <path
           style="fill:none;stroke:#000040;stroke-width:0.5;stroke-linecap:butt;stroke-linejoin:miter;stroke-miterlimit:4;stroke-opacity:0.50196078;stroke-dasharray:none"
           d="m 645,777.36218 140,40"
           id="path4483-2"
           inkscape:connector-curvature="0"
           sodipodi:nodetypes="cc" />
        <path
           style="fill:none;stroke:#000040;stroke-width:0.5;stroke-linecap:butt;stroke-linejoin:miter;stroke-miterlimit:4;stroke-opacity:0.50196078;stroke-dasharray:none"
           d="m 645,787.36218 140,40"
           id="path4483-2-0"
           inkscape:connector-curvature="0"
           sodipodi:nodetypes="cc" />
        <path
           style="fill:none;stroke:#000040;stroke-width:0.5;stroke-linecap:butt;stroke-linejoin:miter;stroke-miterlimit:4;stroke-opacity:0.50196078;stroke-dasharray:none"
           d="m 645,797.36218 140,40"
           id="path4483-2-2"
           inkscape:connector-curvature="0"
           sodipodi:nodetypes="cc" />
        <path
           style="fill:none;stroke:#000040;stroke-width:0.5;stroke-linecap:butt;stroke-linejoin:miter;stroke-miterlimit:4;stroke-opacity:0.50196078;stroke-dasharray:none"
           d="m 645,807.36218 140,40"
           id="path4483-2-5"
           inkscape:connector-curvature="0"
           sodipodi:nodetypes="cc" />
        <path
           style="fill:none;stroke:#000040;stroke-width:0.5;stroke-linecap:butt;stroke-linejoin:miter;stroke-miterlimit:4;stroke-opacity:0.50196078;stroke-dasharray:none"
           d="m 645,802.36218 140,40"
           id="path4483-2-29"
           inkscape:connector-curvature="0"
           sodipodi:nodetypes="cc" />
        <path
           style="fill:none;stroke:#000040;stroke-width:0.5;stroke-linecap:butt;stroke-linejoin:miter;stroke-miterlimit:4;stroke-opacity:0.50196078;stroke-dasharray:none"
           d="m 645,792.36218 140,40"
           id="path4483-2-298"
           inkscape:connector-curvature="0"
           sodipodi:nodetypes="cc" />
        <path
           style="fill:none;stroke:#000040;stroke-width:0.5;stroke-linecap:butt;stroke-linejoin:miter;stroke-miterlimit:4;stroke-opacity:0.50196078;stroke-dasharray:none"
           d="m 645,782.36218 140,40"
           id="path4483-2-3"
           inkscape:connector-curvature="0"
           sodipodi:nodetypes="cc" />
        <path
           style="fill:none;stroke:#000040;stroke-width:0.5;stroke-linecap:butt;stroke-linejoin:miter;stroke-miterlimit:4;stroke-opacity:0.50196078;stroke-dasharray:none"
           d="m 645,847.36218 140,40"
           id="path4483-2-05"
           inkscape:connector-curvature="0"
           sodipodi:nodetypes="cc" />
        <path
           style="fill:none;stroke:#000040;stroke-width:0.5;stroke-linecap:butt;stroke-linejoin:miter;stroke-miterlimit:4;stroke-opacity:0.50196078;stroke-dasharray:none"
           d="m 645,857.36218 140,40"
           id="path4483-2-0-0"
           inkscape:connector-curvature="0"
           sodipodi:nodetypes="cc" />
        <path
           style="fill:none;stroke:#000040;stroke-width:0.5;stroke-linecap:butt;stroke-linejoin:miter;stroke-miterlimit:4;stroke-opacity:0.50196078;stroke-dasharray:none"
           d="m 645,867.36218 140,40"
           id="path4483-2-2-0"
           inkscape:connector-curvature="0"
           sodipodi:nodetypes="cc" />
        <path
           style="fill:none;stroke:#000040;stroke-width:0.5;stroke-linecap:butt;stroke-linejoin:miter;stroke-miterlimit:4;stroke-opacity:0.50196078;stroke-dasharray:none"
           d="m 645,877.36218 140,40"
           id="path4483-2-5-7"
           inkscape:connector-curvature="0"
           sodipodi:nodetypes="cc" />
        <path
           style="fill:none;stroke:#000040;stroke-width:0.5;stroke-linecap:butt;stroke-linejoin:miter;stroke-miterlimit:4;stroke-opacity:0.50196078;stroke-dasharray:none"
           d="m 645,872.36218 140,40"
           id="path4483-2-29-5"
           inkscape:connector-curvature="0"
           sodipodi:nodetypes="cc" />
        <path
           style="fill:none;stroke:#000040;stroke-width:0.5;stroke-linecap:butt;stroke-linejoin:miter;stroke-miterlimit:4;stroke-opacity:0.50196078;stroke-dasharray:none"
           d="m 645,862.36218 140,40"
           id="path4483-2-298-4"
           inkscape:connector-curvature="0"
           sodipodi:nodetypes="cc" />
        <path
           style="fill:none;stroke:#000040;stroke-width:0.5;stroke-linecap:butt;stroke-linejoin:miter;stroke-miterlimit:4;stroke-opacity:0.50196078;stroke-dasharray:none"
           d="m 645,852.36218 140,40"
           id="path4483-2-3-8"
           inkscape:connector-curvature="0"
           sodipodi:nodetypes="cc" />
        <path
           style="fill:none;stroke:#000040;stroke-width:0.5;stroke-linecap:butt;stroke-linejoin:miter;stroke-miterlimit:4;stroke-opacity:0.50196078;stroke-dasharray:none"
           d="m 645,917.36218 140,40"
           id="path4483-2-06"
           inkscape:connector-curvature="0"
           sodipodi:nodetypes="cc" />
        <path
           style="fill:none;stroke:#000040;stroke-width:0.5;stroke-linecap:butt;stroke-linejoin:miter;stroke-miterlimit:4;stroke-opacity:0.50196078;stroke-dasharray:none"
           d="M 645,927.36218 785,967.3622"
           id="path4483-2-0-01"
           inkscape:connector-curvature="0"
           sodipodi:nodetypes="cc" />
        <path
           style="fill:none;stroke:#000040;stroke-width:0.5;stroke-linecap:butt;stroke-linejoin:miter;stroke-miterlimit:4;stroke-opacity:0.50196078;stroke-dasharray:none"
           d="M 645,937.36218 785,977.3622"
           id="path4483-2-2-9"
           inkscape:connector-curvature="0"
           sodipodi:nodetypes="cc" />
        <path
           style="fill:none;stroke:#000040;stroke-width:0.5;stroke-linecap:butt;stroke-linejoin:miter;stroke-miterlimit:4;stroke-opacity:0.50196078;stroke-dasharray:none"
           d="M 645,932.36218 785,972.3622"
           id="path4483-2-298-48"
           inkscape:connector-curvature="0"
           sodipodi:nodetypes="cc" />
        <path
           style="fill:none;stroke:#000040;stroke-width:0.5;stroke-linecap:butt;stroke-linejoin:miter;stroke-miterlimit:4;stroke-opacity:0.50196078;stroke-dasharray:none"
           d="m 645,922.36218 140,40"
           id="path4483-2-3-7"
           inkscape:connector-curvature="0"
           sodipodi:nodetypes="cc" />
      </g>
      <g
         transform="translate(-175,54.99998)"
         id="g5072">
        <path
           style="fill:none;stroke:#000040;stroke-width:0.5;stroke-linecap:butt;stroke-linejoin:miter;stroke-miterlimit:4;stroke-opacity:0.75294118;stroke-dasharray:none"
           d="m 655,797.36218 120,-40"
           id="path4483"
           inkscape:connector-curvature="0" />
        <path
           style="fill:none;stroke:#000040;stroke-width:0.5;stroke-linecap:butt;stroke-linejoin:miter;stroke-miterlimit:4;stroke-opacity:0.75294118;stroke-dasharray:none"
           d="m 655,807.36218 120,-40"
           id="path4483-6"
           inkscape:connector-curvature="0" />
        <path
           style="fill:none;stroke:#000040;stroke-width:0.5;stroke-linecap:butt;stroke-linejoin:miter;stroke-miterlimit:4;stroke-opacity:0.75294118;stroke-dasharray:none"
           d="m 655,817.36218 120,-40"
           id="path4483-61"
           inkscape:connector-curvature="0" />
        <path
           style="fill:none;stroke:#000040;stroke-width:0.5;stroke-linecap:butt;stroke-linejoin:miter;stroke-miterlimit:4;stroke-opacity:0.75294118;stroke-dasharray:none"
           d="m 655,827.36218 120,-40"
           id="path4483-7"
           inkscape:connector-curvature="0" />
        <path
           style="fill:none;stroke:#000040;stroke-width:0.5;stroke-linecap:butt;stroke-linejoin:miter;stroke-miterlimit:4;stroke-opacity:0.75294118;stroke-dasharray:none"
           d="m 655,822.36218 120,-40"
           id="path4483-3"
           inkscape:connector-curvature="0" />
        <path
           style="fill:none;stroke:#000040;stroke-width:0.5;stroke-linecap:butt;stroke-linejoin:miter;stroke-miterlimit:4;stroke-opacity:0.75294118;stroke-dasharray:none"
           d="m 655,812.36218 120,-40"
           id="path4483-617"
           inkscape:connector-curvature="0" />
        <path
           style="fill:none;stroke:#000040;stroke-width:0.5;stroke-linecap:butt;stroke-linejoin:miter;stroke-miterlimit:4;stroke-opacity:0.75294118;stroke-dasharray:none"
           d="m 655,802.36218 120,-40"
           id="path4483-5"
           inkscape:connector-curvature="0" />
        <path
           style="fill:none;stroke:#000040;stroke-width:0.5;stroke-linecap:butt;stroke-linejoin:miter;stroke-miterlimit:4;stroke-opacity:0.75294118;stroke-dasharray:none"
           d="m 685,782.36218 90,-30"
           id="path4483-28"
           inkscape:connector-curvature="0"
           sodipodi:nodetypes="cc" />
        <path
           style="fill:none;stroke:#000040;stroke-width:0.5;stroke-linecap:butt;stroke-linejoin:miter;stroke-miterlimit:4;stroke-opacity:0.75294118;stroke-dasharray:none"
           d="m 715,767.36218 60,-20"
           id="path4483-1"
           inkscape:connector-curvature="0"
           sodipodi:nodetypes="cc" />
        <path
           style="fill:none;stroke:#000040;stroke-width:0.5;stroke-linecap:butt;stroke-linejoin:miter;stroke-miterlimit:4;stroke-opacity:0.75294118;stroke-dasharray:none"
           d="m 745,752.36218 30,-10"
           id="path4483-13"
           inkscape:connector-curvature="0"
           sodipodi:nodetypes="cc" />
        <path
           style="fill:none;stroke:#000040;stroke-width:0.5;stroke-linecap:butt;stroke-linejoin:miter;stroke-miterlimit:4;stroke-opacity:0.75294118;stroke-dasharray:none"
           d="m 655,832.36218 120,-40"
           id="path4483-11"
           inkscape:connector-curvature="0" />
        <path
           style="fill:none;stroke:#000040;stroke-width:0.5;stroke-linecap:butt;stroke-linejoin:miter;stroke-miterlimit:4;stroke-opacity:0.75294118;stroke-dasharray:none"
           d="m 655,842.36218 120,-40"
           id="path4483-6-3"
           inkscape:connector-curvature="0" />
        <path
           style="fill:none;stroke:#000040;stroke-width:0.5;stroke-linecap:butt;stroke-linejoin:miter;stroke-miterlimit:4;stroke-opacity:0.75294118;stroke-dasharray:none"
           d="m 655,852.36218 120,-40"
           id="path4483-61-9"
           inkscape:connector-curvature="0" />
        <path
           style="fill:none;stroke:#000040;stroke-width:0.5;stroke-linecap:butt;stroke-linejoin:miter;stroke-miterlimit:4;stroke-opacity:0.75294118;stroke-dasharray:none"
           d="m 655,862.36218 120,-40"
           id="path4483-7-6"
           inkscape:connector-curvature="0" />
        <path
           style="fill:none;stroke:#000040;stroke-width:0.5;stroke-linecap:butt;stroke-linejoin:miter;stroke-miterlimit:4;stroke-opacity:0.75294118;stroke-dasharray:none"
           d="m 655,857.36218 120,-40"
           id="path4483-3-2"
           inkscape:connector-curvature="0" />
        <path
           style="fill:none;stroke:#000040;stroke-width:0.5;stroke-linecap:butt;stroke-linejoin:miter;stroke-miterlimit:4;stroke-opacity:0.75294118;stroke-dasharray:none"
           d="m 655,847.36218 120,-40"
           id="path4483-617-9"
           inkscape:connector-curvature="0" />
        <path
           style="fill:none;stroke:#000040;stroke-width:0.5;stroke-linecap:butt;stroke-linejoin:miter;stroke-miterlimit:4;stroke-opacity:0.75294118;stroke-dasharray:none"
           d="m 655,837.36218 120,-40"
           id="path4483-5-3"
           inkscape:connector-curvature="0" />
        <path
           style="fill:none;stroke:#000040;stroke-width:0.5;stroke-linecap:butt;stroke-linejoin:miter;stroke-miterlimit:4;stroke-opacity:0.75294118;stroke-dasharray:none"
           d="m 655,867.36218 120,-40"
           id="path4483-4"
           inkscape:connector-curvature="0" />
        <path
           style="fill:none;stroke:#000040;stroke-width:0.5;stroke-linecap:butt;stroke-linejoin:miter;stroke-miterlimit:4;stroke-opacity:0.75294118;stroke-dasharray:none"
           d="m 655,877.36218 120,-40"
           id="path4483-6-6"
           inkscape:connector-curvature="0" />
        <path
           style="fill:none;stroke:#000040;stroke-width:0.5;stroke-linecap:butt;stroke-linejoin:miter;stroke-miterlimit:4;stroke-opacity:0.75294118;stroke-dasharray:none"
           d="m 655,887.36218 120,-40"
           id="path4483-61-1"
           inkscape:connector-curvature="0" />
        <path
           style="fill:none;stroke:#000040;stroke-width:0.5;stroke-linecap:butt;stroke-linejoin:miter;stroke-miterlimit:4;stroke-opacity:0.75294118;stroke-dasharray:none"
           d="m 655,897.36218 120,-40"
           id="path4483-7-3"
           inkscape:connector-curvature="0" />
        <path
           style="fill:none;stroke:#000040;stroke-width:0.5;stroke-linecap:butt;stroke-linejoin:miter;stroke-miterlimit:4;stroke-opacity:0.75294118;stroke-dasharray:none"
           d="m 655,892.36218 120,-40"
           id="path4483-3-6"
           inkscape:connector-curvature="0" />
        <path
           style="fill:none;stroke:#000040;stroke-width:0.5;stroke-linecap:butt;stroke-linejoin:miter;stroke-miterlimit:4;stroke-opacity:0.75294118;stroke-dasharray:none"
           d="m 655,882.36218 120,-40"
           id="path4483-617-7"
           inkscape:connector-curvature="0" />
        <path
           style="fill:none;stroke:#000040;stroke-width:0.5;stroke-linecap:butt;stroke-linejoin:miter;stroke-miterlimit:4;stroke-opacity:0.75294118;stroke-dasharray:none"
           d="m 655,872.36218 120,-40"
           id="path4483-5-6"
           inkscape:connector-curvature="0" />
        <path
           style="fill:none;stroke:#000040;stroke-width:0.5;stroke-linecap:butt;stroke-linejoin:miter;stroke-miterlimit:4;stroke-opacity:0.75294118;stroke-dasharray:none"
           d="m 655,902.36218 120,-40"
           id="path4483-8"
           inkscape:connector-curvature="0" />
        <path
           style="fill:none;stroke:#000040;stroke-width:0.5;stroke-linecap:butt;stroke-linejoin:miter;stroke-miterlimit:4;stroke-opacity:0.75294118;stroke-dasharray:none"
           d="M 655,912.3622 775,872.36218"
           id="path4483-6-4"
           inkscape:connector-curvature="0" />
        <path
           style="fill:none;stroke:#000040;stroke-width:0.5;stroke-linecap:butt;stroke-linejoin:miter;stroke-miterlimit:4;stroke-opacity:0.75294118;stroke-dasharray:none"
           d="M 655,917.3622 775,877.36218"
           id="path4483-617-1"
           inkscape:connector-curvature="0" />
        <path
           style="fill:none;stroke:#000040;stroke-width:0.5;stroke-linecap:butt;stroke-linejoin:miter;stroke-miterlimit:4;stroke-opacity:0.75294118;stroke-dasharray:none"
           d="M 655,907.3622 775,867.36218"
           id="path4483-5-9"
           inkscape:connector-curvature="0" />
        <path
           style="fill:none;stroke:#000040;stroke-width:0.5;stroke-linecap:butt;stroke-linejoin:miter;stroke-miterlimit:4;stroke-opacity:0.75294118;stroke-dasharray:none"
           d="m 655,922.36218 120,-40"
           id="path4483-7-3-8"
           inkscape:connector-curvature="0" />
        <path
           style="fill:none;stroke:#000040;stroke-width:0.5;stroke-linecap:butt;stroke-linejoin:miter;stroke-miterlimit:4;stroke-opacity:0.75294118;stroke-dasharray:none"
           d="M 655,927.3622 775,887.36218"
           id="path4483-8-0"
           inkscape:connector-curvature="0" />
        <path
           style="fill:none;stroke:#000040;stroke-width:0.5;stroke-linecap:butt;stroke-linejoin:miter;stroke-miterlimit:4;stroke-opacity:0.75294118;stroke-dasharray:none"
           d="M 655,937.3622 775,897.36218"
           id="path4483-6-4-2"
           inkscape:connector-curvature="0" />
        <path
           style="fill:none;stroke:#000040;stroke-width:0.5;stroke-linecap:butt;stroke-linejoin:miter;stroke-miterlimit:4;stroke-opacity:0.75294118;stroke-dasharray:none"
           d="M 655,942.3622 775,902.36218"
           id="path4483-617-1-2"
           inkscape:connector-curvature="0" />
        <path
           style="fill:none;stroke:#000040;stroke-width:0.5;stroke-linecap:butt;stroke-linejoin:miter;stroke-miterlimit:4;stroke-opacity:0.75294118;stroke-dasharray:none"
           d="M 655,932.3622 775,892.36218"
           id="path4483-5-9-1"
           inkscape:connector-curvature="0" />
        <path
           style="fill:none;stroke:#000040;stroke-width:0.5;stroke-linecap:butt;stroke-linejoin:miter;stroke-miterlimit:4;stroke-opacity:0.75294118;stroke-dasharray:none"
           d="M 655,947.3622 775,907.36218"
           id="path4483-7-3-5"
           inkscape:connector-curvature="0" />
        <path
           style="fill:none;stroke:#000040;stroke-width:0.5;stroke-linecap:butt;stroke-linejoin:miter;stroke-miterlimit:4;stroke-opacity:0.75294118;stroke-dasharray:none"
           d="M 655,952.3622 775,912.36218"
           id="path4483-8-5"
           inkscape:connector-curvature="0" />
        <path
           style="fill:none;stroke:#000040;stroke-width:0.5;stroke-linecap:butt;stroke-linejoin:miter;stroke-miterlimit:4;stroke-opacity:0.75294118;stroke-dasharray:none"
           d="M 655,957.3622 775,917.36218"
           id="path4483-5-9-19"
           inkscape:connector-curvature="0" />
      </g>
    </g>
    <g
       id="g5316"
       transform="translate(260,-10)">
      <path
         inkscape:connector-curvature="0"
         id="path5110"
         d="m -220,937.36218 220,0"
         style="fill:none;stroke:#000040;stroke-width:1px;stroke-linecap:butt;stroke-linejoin:miter;stroke-opacity:0.50196078" />
      <path
         inkscape:connector-curvature="0"
         id="path5110-5"
         d="m -220,982.36218 220,0"
         style="fill:none;stroke:#000040;stroke-width:1px;stroke-linecap:butt;stroke-linejoin:miter;stroke-opacity:0.50196078" />
      <path
         inkscape:connector-curvature="0"
         id="path5110-9"
         d="m -220,977.36218 220,0"
         style="fill:none;stroke:#000040;stroke-width:1px;stroke-linecap:butt;stroke-linejoin:miter;stroke-opacity:0.50196078" />
      <path
         inkscape:connector-curvature="0"
         id="path5110-4"
         d="m -220,972.36218 220,0"
         style="fill:none;stroke:#000040;stroke-width:1px;stroke-linecap:butt;stroke-linejoin:miter;stroke-opacity:0.50196078" />
      <path
         inkscape:connector-curvature="0"
         id="path5110-0"
         d="m -220,967.36218 220,0"
         style="fill:none;stroke:#000040;stroke-width:1px;stroke-linecap:butt;stroke-linejoin:miter;stroke-opacity:0.50196078" />
      <path
         inkscape:connector-curvature="0"
         id="path5110-6"
         d="m -220,962.36218 220,0"
         style="fill:none;stroke:#000040;stroke-width:1px;stroke-linecap:butt;stroke-linejoin:miter;stroke-opacity:0.50196078" />
      <path
         inkscape:connector-curvature="0"
         id="path5110-3"
         d="m -220,957.36218 220,0"
         style="fill:none;stroke:#000040;stroke-width:1px;stroke-linecap:butt;stroke-linejoin:miter;stroke-opacity:0.50196078" />
      <path
         inkscape:connector-curvature="0"
         id="path5110-8"
         d="m -220,952.36218 220,0"
         style="fill:none;stroke:#000040;stroke-width:1px;stroke-linecap:butt;stroke-linejoin:miter;stroke-opacity:0.50196078" />
      <path
         inkscape:connector-curvature="0"
         id="path5110-63"
         d="m -220,947.36218 220,0"
         style="fill:none;stroke:#000040;stroke-width:1px;stroke-linecap:butt;stroke-linejoin:miter;stroke-opacity:0.50196078" />
      <path
         inkscape:connector-curvature="0"
         id="path5110-7"
         d="m -220,942.36218 220,0"
         style="fill:none;stroke:#000040;stroke-width:1px;stroke-linecap:butt;stroke-linejoin:miter;stroke-opacity:0.50196078" />
      <path
         inkscape:connector-curvature="0"
         id="path5110-60"
         d="m -220,932.36218 220,0"
         style="fill:none;stroke:#000040;stroke-width:1px;stroke-linecap:butt;stroke-linejoin:miter;stroke-opacity:0.50196078" />
      <path
         inkscape:connector-curvature="0"
         id="path5110-1"
         d="m -220,927.36218 220,0"
         style="fill:none;stroke:#000040;stroke-width:1px;stroke-linecap:butt;stroke-linejoin:miter;stroke-opacity:0.50196078" />
      <path
         inkscape:connector-curvature="0"
         id="path5110-73"
         d="m -220,922.36218 220,0"
         style="fill:none;stroke:#000040;stroke-width:1px;stroke-linecap:butt;stroke-linejoin:miter;stroke-opacity:0.50196078" />
      <path
         inkscape:connector-curvature="0"
         id="path5110-18"
         d="m -220,917.36218 220,0"
         style="fill:none;stroke:#000040;stroke-width:1px;stroke-linecap:butt;stroke-linejoin:miter;stroke-opacity:0.50196078" />
      <path
         inkscape:connector-curvature="0"
         id="path5110-14"
         d="m -220,912.36218 220,0"
         style="fill:none;stroke:#000040;stroke-width:1px;stroke-linecap:butt;stroke-linejoin:miter;stroke-opacity:0.50196078" />
      <path
         inkscape:connector-curvature="0"
         id="path5110-99"
         d="m -220,862.36218 220,0"
         style="fill:none;stroke:#000040;stroke-width:1px;stroke-linecap:butt;stroke-linejoin:miter;stroke-opacity:0.50196078" />
      <path
         inkscape:connector-curvature="0"
         id="path5110-5-6"
         d="m -220,907.36218 220,0"
         style="fill:none;stroke:#000040;stroke-width:1px;stroke-linecap:butt;stroke-linejoin:miter;stroke-opacity:0.50196078" />
      <path
         inkscape:connector-curvature="0"
         id="path5110-9-7"
         d="m -220,902.36218 220,0"
         style="fill:none;stroke:#000040;stroke-width:1px;stroke-linecap:butt;stroke-linejoin:miter;stroke-opacity:0.50196078" />
      <path
         inkscape:connector-curvature="0"
         id="path5110-4-3"
         d="m -220,897.36218 220,0"
         style="fill:none;stroke:#000040;stroke-width:1px;stroke-linecap:butt;stroke-linejoin:miter;stroke-opacity:0.50196078" />
      <path
         inkscape:connector-curvature="0"
         id="path5110-0-5"
         d="m -220,892.36218 220,0"
         style="fill:none;stroke:#000040;stroke-width:1px;stroke-linecap:butt;stroke-linejoin:miter;stroke-opacity:0.50196078" />
      <path
         inkscape:connector-curvature="0"
         id="path5110-6-2"
         d="m -220,887.36218 220,0"
         style="fill:none;stroke:#000040;stroke-width:1px;stroke-linecap:butt;stroke-linejoin:miter;stroke-opacity:0.50196078" />
      <path
         inkscape:connector-curvature="0"
         id="path5110-3-0"
         d="m -220,882.36218 220,0"
         style="fill:none;stroke:#000040;stroke-width:1px;stroke-linecap:butt;stroke-linejoin:miter;stroke-opacity:0.50196078" />
      <path
         inkscape:connector-curvature="0"
         id="path5110-8-1"
         d="m -220,877.36218 220,0"
         style="fill:none;stroke:#000040;stroke-width:1px;stroke-linecap:butt;stroke-linejoin:miter;stroke-opacity:0.50196078" />
      <path
         inkscape:connector-curvature="0"
         id="path5110-63-5"
         d="m -220,872.36218 220,0"
         style="fill:none;stroke:#000040;stroke-width:1px;stroke-linecap:butt;stroke-linejoin:miter;stroke-opacity:0.50196078" />
      <path
         inkscape:connector-curvature="0"
         id="path5110-7-4"
         d="m -220,867.36218 220,0"
         style="fill:none;stroke:#000040;stroke-width:1px;stroke-linecap:butt;stroke-linejoin:miter;stroke-opacity:0.50196078" />
      <path
         inkscape:connector-curvature="0"
         id="path5110-60-6"
         d="m -220,857.36218 220,0"
         style="fill:none;stroke:#000040;stroke-width:1px;stroke-linecap:butt;stroke-linejoin:miter;stroke-opacity:0.50196078" />
      <path
         inkscape:connector-curvature="0"
         id="path5110-1-7"
         d="m -220,852.36218 220,0"
         style="fill:none;stroke:#000040;stroke-width:1px;stroke-linecap:butt;stroke-linejoin:miter;stroke-opacity:0.50196078" />
      <path
         inkscape:connector-curvature="0"
         id="path5110-73-4"
         d="m -220,847.36218 220,0"
         style="fill:none;stroke:#000040;stroke-width:1px;stroke-linecap:butt;stroke-linejoin:miter;stroke-opacity:0.50196078" />
      <path
         inkscape:connector-curvature="0"
         id="path5110-18-2"
         d="m -220,842.36218 220,0"
         style="fill:none;stroke:#000040;stroke-width:1px;stroke-linecap:butt;stroke-linejoin:miter;stroke-opacity:0.50196078" />
      <path
         inkscape:connector-curvature="0"
         id="path5110-14-9"
         d="m -220,837.36218 220,0"
         style="fill:none;stroke:#000040;stroke-width:1px;stroke-linecap:butt;stroke-linejoin:miter;stroke-opacity:0.50196078" />
      <path
         inkscape:connector-curvature="0"
         id="path5110-10"
         d="m -220,787.36218 220,0"
         style="fill:none;stroke:#000040;stroke-width:1px;stroke-linecap:butt;stroke-linejoin:miter;stroke-opacity:0.50196078" />
      <path
         inkscape:connector-curvature="0"
         id="path5110-5-7"
         d="m -220,832.36218 220,0"
         style="fill:none;stroke:#000040;stroke-width:1px;stroke-linecap:butt;stroke-linejoin:miter;stroke-opacity:0.50196078" />
      <path
         inkscape:connector-curvature="0"
         id="path5110-9-0"
         d="m -220,827.36218 220,0"
         style="fill:none;stroke:#000040;stroke-width:1px;stroke-linecap:butt;stroke-linejoin:miter;stroke-opacity:0.50196078" />
      <path
         inkscape:connector-curvature="0"
         id="path5110-4-4"
         d="m -220,822.36218 220,0"
         style="fill:none;stroke:#000040;stroke-width:1px;stroke-linecap:butt;stroke-linejoin:miter;stroke-opacity:0.50196078" />
      <path
         inkscape:connector-curvature="0"
         id="path5110-0-1"
         d="m -220,817.36218 220,0"
         style="fill:none;stroke:#000040;stroke-width:1px;stroke-linecap:butt;stroke-linejoin:miter;stroke-opacity:0.50196078" />
      <path
         inkscape:connector-curvature="0"
         id="path5110-6-4"
         d="m -220,812.36218 220,0"
         style="fill:none;stroke:#000040;stroke-width:1px;stroke-linecap:butt;stroke-linejoin:miter;stroke-opacity:0.50196078" />
      <path
         inkscape:connector-curvature="0"
         id="path5110-3-7"
         d="m -220,807.36218 220,0"
         style="fill:none;stroke:#000040;stroke-width:1px;stroke-linecap:butt;stroke-linejoin:miter;stroke-opacity:0.50196078" />
      <path
         inkscape:connector-curvature="0"
         id="path5110-8-0"
         d="m -220,802.36218 220,0"
         style="fill:none;stroke:#000040;stroke-width:1px;stroke-linecap:butt;stroke-linejoin:miter;stroke-opacity:0.50196078" />
      <path
         inkscape:connector-curvature="0"
         id="path5110-63-4"
         d="m -220,797.36218 220,0"
         style="fill:none;stroke:#000040;stroke-width:1px;stroke-linecap:butt;stroke-linejoin:miter;stroke-opacity:0.50196078" />
      <path
         inkscape:connector-curvature="0"
         id="path5110-7-5"
         d="m -220,792.36218 220,0"
         style="fill:none;stroke:#000040;stroke-width:1px;stroke-linecap:butt;stroke-linejoin:miter;stroke-opacity:0.50196078" />
      <path
         inkscape:connector-curvature="0"
         id="path5110-60-0"
         d="m -220,782.36218 220,0"
         style="fill:none;stroke:#000040;stroke-width:1px;stroke-linecap:butt;stroke-linejoin:miter;stroke-opacity:0.50196078" />
    </g>
    <text
       xml:space="preserve"
       style="font-size:16px;font-style:normal;font-weight:normal;text-align:center;line-height:125%;letter-spacing:0px;word-spacing:0px;text-anchor:middle;fill:#000000;fill-opacity:1;stroke:none;font-family:Sans"
       x="239.54337"
       y="742.82086"
       id="text5941"
       sodipodi:linespacing="125%"><tspan
         sodipodi:role="line"
         id="tspan5943"
         x="239.54337"
         y="742.82086">Bragg</tspan><tspan
         sodipodi:role="line"
         x="239.54337"
         y="762.82086"
         id="tspan5945">Planes</tspan></text>
    <text
       xml:space="preserve"
       style="font-size:40px;font-style:normal;font-weight:normal;text-align:center;line-height:125%;letter-spacing:0px;word-spacing:0px;text-anchor:middle;fill:#000000;fill-opacity:1;stroke:none;font-family:Sans"
       x="380"
       y="792.36218"
       id="text6030"
       sodipodi:linespacing="125%"><tspan
         sodipodi:role="line"
         id="tspan6032"
         x="380"
         y="792.36218"
         style="font-size:24px">Si</tspan></text>
    <text
       xml:space="preserve"
       style="font-size:16px;font-style:normal;font-weight:normal;text-align:center;line-height:125%;letter-spacing:0px;word-spacing:0px;text-anchor:middle;fill:#000000;fill-opacity:1;stroke:none;font-family:Sans"
       x="872.36218"
       y="-300"
       id="text6034"
       sodipodi:linespacing="125%"
       transform="matrix(0,1,-1,0,0,0)"><tspan
         sodipodi:role="line"
         id="tspan6036"
         x="872.36218"
         y="-300">Si [1,1,1]</tspan></text>
    <path
       style="fill:none;stroke:#000000;stroke-width:1px;stroke-linecap:butt;stroke-linejoin:miter;stroke-opacity:1;marker-start:none;marker-end:url(#Arrow1Lend)"
       d="m 280,932.36218 0,-110.00002"
       id="path4481-3"
       inkscape:connector-curvature="0" />
  </g>
</svg>
