<?xml version="1.0" encoding="UTF-8" standalone="no"?>
<!-- Created with Inkscape (http://www.inkscape.org/) -->

<svg
   xmlns:dc="http://purl.org/dc/elements/1.1/"
   xmlns:cc="http://creativecommons.org/ns#"
   xmlns:rdf="http://www.w3.org/1999/02/22-rdf-syntax-ns#"
   xmlns:svg="http://www.w3.org/2000/svg"
   xmlns="http://www.w3.org/2000/svg"
   xmlns:sodipodi="http://sodipodi.sourceforge.net/DTD/sodipodi-0.dtd"
   xmlns:inkscape="http://www.inkscape.org/namespaces/inkscape"
   width="640"
   height="480"
   id="svg3868"
   version="1.1"
   inkscape:version="0.48.3.1 r9886"
   sodipodi:docname="cixs_scattering_scheme.svg"
   inkscape:export-filename="/media/Data/tmp/Documents/academic/unitn_physics_master/_master_thesis/slideshow/figures/cixs_scattering_scheme.png"
   inkscape:export-xdpi="150"
   inkscape:export-ydpi="150">
  <sodipodi:namedview
     id="base"
     pagecolor="#ffffff"
     bordercolor="#666666"
     borderopacity="1.0"
     inkscape:pageopacity="0.0"
     inkscape:pageshadow="2"
     inkscape:zoom="2.20299"
     inkscape:cx="209.58244"
     inkscape:cy="164.63638"
     inkscape:document-units="px"
     inkscape:current-layer="layer1"
     showgrid="true"
     inkscape:window-width="1309"
     inkscape:window-height="748"
     inkscape:window-x="55"
     inkscape:window-y="-3"
     inkscape:window-maximized="1">
    <inkscape:grid
       snapvisiblegridlinesonly="true"
       enabled="true"
       visible="true"
       empspacing="5"
       id="grid3876"
       type="xygrid" />
  </sodipodi:namedview>
  <defs
     id="defs3870">
    <marker
       style="overflow:visible"
       id="Arrow1Lstart"
       refX="0.0"
       refY="0.0"
       orient="auto"
       inkscape:stockid="Arrow1Lstart">
      <path
         transform="scale(0.8) translate(12.5,0)"
         style="fill-rule:evenodd;stroke:#000000;stroke-width:1.0pt"
         d="M 0.0,0.0 L 5.0,-5.0 L -12.5,0.0 L 5.0,5.0 L 0.0,0.0 z "
         id="path4043" />
    </marker>
    <marker
       style="overflow:visible;"
       id="Arrow1Mend"
       refX="0.0"
       refY="0.0"
       orient="auto"
       inkscape:stockid="Arrow1Mend">
      <path
         transform="scale(0.4) rotate(180) translate(10,0)"
         style="fill-rule:evenodd;stroke:#000000;stroke-width:1.0pt;"
         d="M 0.0,0.0 L 5.0,-5.0 L -12.5,0.0 L 5.0,5.0 L 0.0,0.0 z "
         id="path4593" />
    </marker>
    <marker
       style="overflow:visible;"
       id="Arrow1Lend"
       refX="0.0"
       refY="0.0"
       orient="auto"
       inkscape:stockid="Arrow1Lend">
      <path
         transform="scale(0.8) rotate(180) translate(12.5,0)"
         style="fill-rule:evenodd;stroke:#000000;stroke-width:1.0pt;"
         d="M 0.0,0.0 L 5.0,-5.0 L -12.5,0.0 L 5.0,5.0 L 0.0,0.0 z "
         id="path4587" />
    </marker>
    <marker
       style="overflow:visible"
       id="Arrow1Lend-6"
       refX="0"
       refY="0"
       orient="auto"
       inkscape:stockid="Arrow1Lend">
      <path
         transform="matrix(-0.8,0,0,-0.8,-10,0)"
         style="fill-rule:evenodd;stroke:#000000;stroke-width:1pt"
         d="M 0,0 5,-5 -12.5,0 5,5 0,0 z"
         id="path3835"
         inkscape:connector-curvature="0" />
    </marker>
    <marker
       style="overflow:visible;"
       id="Arrow1Mendw"
       refX="0.0"
       refY="0.0"
       orient="auto"
       inkscape:stockid="Arrow1Mendw">
      <path
         transform="scale(0.4) rotate(180) translate(10,0)"
         style="stroke:#7f7f7f;stroke-width:1.0pt;fill:#7f7f7f;fill-rule:evenodd"
         d="M 0.0,0.0 L 5.0,-5.0 L -12.5,0.0 L 5.0,5.0 L 0.0,0.0 z "
         id="path3817" />
    </marker>
    <marker
       style="overflow:visible;"
       id="Arrow1Mendu"
       refX="0.0"
       refY="0.0"
       orient="auto"
       inkscape:stockid="Arrow1Mendu">
      <path
         transform="scale(0.4) rotate(180) translate(10,0)"
         style="stroke:#7f7f7f;stroke-width:1.0pt;fill:#7f7f7f;fill-rule:evenodd"
         d="M 0.0,0.0 L 5.0,-5.0 L -12.5,0.0 L 5.0,5.0 L 0.0,0.0 z "
         id="path3820" />
    </marker>
    <marker
       style="overflow:visible;"
       id="Arrow1MendN"
       refX="0.0"
       refY="0.0"
       orient="auto"
       inkscape:stockid="Arrow1MendN">
      <path
         transform="scale(0.4) rotate(180) translate(10,0)"
         style="stroke:#7f7f7f;stroke-width:1.0pt;fill:#7f7f7f;fill-rule:evenodd"
         d="M 0.0,0.0 L 5.0,-5.0 L -12.5,0.0 L 5.0,5.0 L 0.0,0.0 z "
         id="path3823" />
    </marker>
  </defs>
  <metadata
     id="metadata3873">
    <rdf:RDF>
      <cc:Work
         rdf:about="">
        <dc:format>image/svg+xml</dc:format>
        <dc:type
           rdf:resource="http://purl.org/dc/dcmitype/StillImage" />
        <dc:title></dc:title>
      </cc:Work>
    </rdf:RDF>
  </metadata>
  <g
     transform="translate(0,-572.36218)"
     id="layer1"
     inkscape:groupmode="layer"
     inkscape:label="Layer 1">
    <path
       sodipodi:nodetypes="cc"
       inkscape:connector-curvature="0"
       id="path3880"
       d="M 400,892.36218 280,1012.3622"
       style="fill:none;stroke:#000000;stroke-width:3.5;stroke-linecap:butt;stroke-linejoin:miter;stroke-miterlimit:4;stroke-opacity:1;stroke-dasharray:none;marker-start:none;marker-end:url(#Arrow1Mend)" />
    <path
       sodipodi:nodetypes="cc"
       inkscape:connector-curvature="0"
       id="path3882"
       d="m 40,892.36218 240,-120"
       style="stroke-linejoin:miter;marker-end:url(#Arrow1MendN);stroke-opacity:1;marker-start:none;stroke:#7f7f7f;stroke-linecap:butt;stroke-miterlimit:4;stroke-dasharray:none;stroke-width:3.50000000000000000;fill:none" />
    <path
       sodipodi:nodetypes="cc"
       inkscape:connector-curvature="0"
       id="path3884"
       d="m 280,1012.3622 0,-240.00002"
       style="stroke-linejoin:miter;marker-end:url(#Arrow1Mendw);stroke-opacity:1;marker-start:none;stroke:#7f7f7f;stroke-linecap:butt;stroke-miterlimit:4;stroke-dasharray:none;stroke-width:3.50000000000000000;fill:none" />
    <path
       sodipodi:nodetypes="cc"
       inkscape:connector-curvature="0"
       id="path3886"
       d="m 401.59987,893.96205 -120,-120"
       style="stroke-linejoin:miter;marker-end:url(#Arrow1Mendu);stroke-opacity:1;marker-start:none;stroke:#7f7f7f;stroke-linecap:butt;stroke-miterlimit:4;stroke-dasharray:none;stroke-width:3.50000000000000000;fill:none" />
    <path
       sodipodi:nodetypes="cc"
       inkscape:connector-curvature="0"
       id="path3888"
       d="m 40,892.36218 360,0"
       style="fill:none;stroke:#000000;stroke-width:3.5;stroke-linecap:butt;stroke-linejoin:miter;stroke-miterlimit:4;stroke-opacity:1;stroke-dasharray:none;marker-start:none;marker-end:url(#Arrow1Mend)" />
    <path
       sodipodi:nodetypes="cc"
       inkscape:connector-curvature="0"
       id="path3890"
       d="M 40,892.36218 280,1012.3622"
       style="fill:none;stroke:#000000;stroke-width:3.5;stroke-linecap:butt;stroke-linejoin:miter;stroke-miterlimit:4;stroke-opacity:1;stroke-dasharray:none;marker-start:none;marker-end:url(#Arrow1Mend)" />
    <text
       sodipodi:linespacing="125%"
       id="text5024"
       y="982.36218"
       x="150"
       style="font-size:24px;font-style:normal;font-weight:normal;text-align:center;line-height:125%;letter-spacing:0px;word-spacing:0px;text-anchor:middle;fill:#000000;fill-opacity:1;stroke:none;font-family:Sans"
       xml:space="preserve"><tspan
         y="982.36218"
         x="150"
         id="tspan5026"
         sodipodi:role="line">K<tspan
   id="tspan5052"
   style="font-size:65.00091553%;baseline-shift:sub">0</tspan></tspan></text>
    <text
       sodipodi:linespacing="125%"
       id="text5028"
       y="812.36218"
       x="160"
       style="font-size:24px;font-style:normal;font-weight:normal;text-align:center;line-height:125%;letter-spacing:0px;word-spacing:0px;text-anchor:middle;fill:#000000;fill-opacity:1;stroke:#7f7f7f;font-family:Sans;stroke-opacity:1"
       xml:space="preserve"><tspan
         y="812.36218"
         x="160"
         id="tspan5030"
         sodipodi:role="line">K<tspan
   id="tspan5048"
   style="font-size:65.00091553000000033%;baseline-shift:sub;stroke:#7f7f7f;stroke-opacity:1">h</tspan></tspan></text>
    <text
       sodipodi:linespacing="125%"
       id="text5032"
       y="812.36218"
       x="350"
       style="font-size:24px;font-style:normal;font-weight:normal;text-align:center;line-height:125%;letter-spacing:0px;word-spacing:0px;text-anchor:middle;fill:#000000;fill-opacity:1;stroke:#7f7f7f;font-family:Sans;stroke-opacity:1"
       xml:space="preserve"><tspan
         y="812.36218"
         x="350"
         id="tspan5034"
         sodipodi:role="line">q<tspan
   id="tspan5054"
   style="font-size:65.00091553000000033%;baseline-shift:sub;stroke:#7f7f7f;stroke-opacity:1">h</tspan></tspan></text>
    <text
       sodipodi:linespacing="125%"
       id="text5036"
       y="972.36218"
       x="360"
       style="font-size:24px;font-style:normal;font-weight:normal;text-align:center;line-height:125%;letter-spacing:0px;word-spacing:0px;text-anchor:middle;fill:#000000;fill-opacity:1;stroke:none;font-family:Sans"
       xml:space="preserve"><tspan
         y="972.36218"
         x="360"
         id="tspan5038"
         sodipodi:role="line">q<tspan
   id="tspan5056"
   style="font-size:65.00091553%;baseline-shift:sub">0</tspan></tspan></text>
    <text
       sodipodi:linespacing="125%"
       id="text5040"
       y="822.36218"
       x="260"
       style="font-size:24px;font-style:normal;font-weight:normal;text-align:center;line-height:125%;letter-spacing:0px;word-spacing:0px;text-anchor:middle;fill:#000000;fill-opacity:1;stroke:#7f7f7f;font-family:Sans;stroke-opacity:1"
       xml:space="preserve"><tspan
         y="822.36218"
         x="260"
         id="tspan5042"
         sodipodi:role="line">g</tspan></text>
    <text
       sodipodi:linespacing="125%"
       id="text5044"
       y="882.36218"
       x="330"
       style="font-size:24px;font-style:normal;font-weight:normal;text-align:center;line-height:125%;letter-spacing:0px;word-spacing:0px;text-anchor:middle;fill:#000000;fill-opacity:1;stroke:none;font-family:Sans"
       xml:space="preserve"><tspan
         y="882.36218"
         x="330"
         id="tspan5046"
         sodipodi:role="line">K<tspan
   id="tspan5050"
   style="font-size:65.00091553%;baseline-shift:sub">2</tspan></tspan></text>
  </g>
</svg>
