<?xml version="1.0" encoding="UTF-8" standalone="no"?>
<!-- Created with Inkscape (http://www.inkscape.org/) -->

<svg
   xmlns:dc="http://purl.org/dc/elements/1.1/"
   xmlns:cc="http://creativecommons.org/ns#"
   xmlns:rdf="http://www.w3.org/1999/02/22-rdf-syntax-ns#"
   xmlns:svg="http://www.w3.org/2000/svg"
   xmlns="http://www.w3.org/2000/svg"
   xmlns:sodipodi="http://sodipodi.sourceforge.net/DTD/sodipodi-0.dtd"
   xmlns:inkscape="http://www.inkscape.org/namespaces/inkscape"
   id="svg2"
   version="1.1"
   inkscape:version="0.48.3.1 r9886"
   width="1444"
   height="685"
   sodipodi:docname="excitation_spectrum.svg">
  <metadata
     id="metadata8">
    <rdf:RDF>
      <cc:Work
         rdf:about="">
        <dc:format>image/svg+xml</dc:format>
        <dc:type
           rdf:resource="http://purl.org/dc/dcmitype/StillImage" />
        <dc:title />
      </cc:Work>
    </rdf:RDF>
  </metadata>
  <defs
     id="defs6">
    <marker
       inkscape:stockid="Arrow1Mend"
       orient="auto"
       refY="0.0"
       refX="0.0"
       id="Arrow1Mend"
       style="overflow:visible;">
      <path
         id="path3801"
         d="M 0.0,0.0 L 5.0,-5.0 L -12.5,0.0 L 5.0,5.0 L 0.0,0.0 z "
         style="fill-rule:evenodd;stroke:#000000;stroke-width:1.0pt;"
         transform="scale(0.4) rotate(180) translate(10,0)" />
    </marker>
    <marker
       inkscape:stockid="Arrow1Mstart"
       orient="auto"
       refY="0.0"
       refX="0.0"
       id="Arrow1Mstart"
       style="overflow:visible">
      <path
         id="path3798"
         d="M 0.0,0.0 L 5.0,-5.0 L -12.5,0.0 L 5.0,5.0 L 0.0,0.0 z "
         style="fill-rule:evenodd;stroke:#000000;stroke-width:1.0pt"
         transform="scale(0.4) translate(10,0)" />
    </marker>
    <marker
       inkscape:stockid="Arrow1Lstart"
       orient="auto"
       refY="0.0"
       refX="0.0"
       id="Arrow1Lstart"
       style="overflow:visible">
      <path
         id="path3792"
         d="M 0.0,0.0 L 5.0,-5.0 L -12.5,0.0 L 5.0,5.0 L 0.0,0.0 z "
         style="fill-rule:evenodd;stroke:#000000;stroke-width:1.0pt"
         transform="scale(0.8) translate(12.5,0)" />
    </marker>
  </defs>
  <sodipodi:namedview
     pagecolor="#ffffff"
     bordercolor="#666666"
     borderopacity="1"
     objecttolerance="10"
     gridtolerance="10"
     guidetolerance="10"
     inkscape:pageopacity="0"
     inkscape:pageshadow="2"
     inkscape:window-width="1309"
     inkscape:window-height="748"
     id="namedview4"
     showgrid="true"
     inkscape:zoom="0.4555283"
     inkscape:cx="686.52097"
     inkscape:cy="295.08358"
     inkscape:window-x="55"
     inkscape:window-y="-3"
     inkscape:window-maximized="1"
     inkscape:current-layer="svg2"
     inkscape:snap-grids="true">
    <inkscape:grid
       type="xygrid"
       id="grid3008" />
  </sodipodi:namedview>
  <g
     id="g3827"
     style="fill:#d8d8ff;fill-opacity:1">
    <path
       sodipodi:nodetypes="ccsccccccccccccccccccc"
       inkscape:connector-curvature="0"
       id="path2987"
       d="m 110,605 c 40,0 30,-120 40,-480 10,360 0,480 50,480 l 20,0 c 40,0 30,-160 40,-160 10,0 0,160 40,160 l 40,0 c 40,0 30,-140 40,-140 5,0 10,60 20,60 5,0 5,-15 10,-15 5,0 5,35 10,35 15,0 20,-10 25,-10 5,0 30,35 45,35 40,0 60,-285 70,-285 20,0 20,320 60,320 l 40,0 c 31.89191,-3.15075 30,-140 40,-140 5,5 2.73768,25 5,30 15,-10 20,0 45,0 190,-10 150,-410 210,-410 60,0 0,400 360,440 l 0,80"
       style="fill:#d8d8ff;fill-opacity:1;stroke:#000000;stroke-width:2;stroke-linecap:butt;stroke-linejoin:miter;stroke-miterlimit:4;stroke-opacity:1;stroke-dasharray:none" />
  </g>
  <text
     xml:space="preserve"
     style="font-size:40px;font-style:normal;font-weight:normal;line-height:125%;letter-spacing:0px;word-spacing:0px;fill:#000000;fill-opacity:1;stroke:none;font-family:Sans"
     x="-505"
     y="60"
     id="text3012"
     sodipodi:linespacing="125%"
     transform="matrix(0,-1,1,0,0,0)"><tspan
       sodipodi:role="line"
       id="tspan3014"
       x="-505"
       y="60"
       style="font-size:32px;writing-mode:lr-tb">Intensity (arb. units)</tspan></text>
  <text
     xml:space="preserve"
     style="font-size:40px;font-style:normal;font-weight:normal;line-height:125%;letter-spacing:0px;word-spacing:0px;fill:#000000;fill-opacity:1;stroke:none;font-family:Sans"
     x="1180"
     y="665"
     id="text3016"
     sodipodi:linespacing="125%"><tspan
       sodipodi:role="line"
       id="tspan3018"
       x="1180"
       y="665"
       style="font-size:32px">Energy transfer</tspan></text>
  <text
     xml:space="preserve"
     style="font-size:24px;font-style:normal;font-weight:normal;line-height:125%;letter-spacing:0px;word-spacing:0px;fill:#000000;fill-opacity:1;stroke:none;font-family:Sans"
     x="122.25586"
     y="665"
     id="text4606"
     sodipodi:linespacing="125%"><tspan
       sodipodi:role="line"
       id="tspan4608"
       x="122.25586"
       y="665">0 eV</tspan><tspan
       sodipodi:role="line"
       x="122.25586"
       y="695"
       id="tspan4610" /></text>
  <text
     xml:space="preserve"
     style="font-size:24px;font-style:normal;font-weight:normal;line-height:125%;letter-spacing:0px;word-spacing:0px;fill:#000000;fill-opacity:1;stroke:none;font-family:Sans"
     x="212.39258"
     y="665"
     id="text4612"
     sodipodi:linespacing="125%"><tspan
       sodipodi:role="line"
       id="tspan4614"
       x="212.39258"
       y="665">10 meV</tspan></text>
  <text
     xml:space="preserve"
     style="font-size:24px;font-style:normal;font-weight:normal;line-height:125%;letter-spacing:0px;word-spacing:0px;fill:#000000;fill-opacity:1;stroke:none;font-family:Sans"
     x="371.72852"
     y="665"
     id="text4616"
     sodipodi:linespacing="125%"
     inkscape:transform-center-x="62.304688"
     inkscape:transform-center-y="68.5625"><tspan
       sodipodi:role="line"
       id="tspan4618"
       x="371.72852"
       y="665">1 eV</tspan></text>
  <text
     xml:space="preserve"
     style="font-size:24px;font-style:normal;font-weight:normal;line-height:125%;letter-spacing:0px;word-spacing:0px;fill:#000000;fill-opacity:1;stroke:none;font-family:Sans"
     x="524.08789"
     y="665"
     id="text4620"
     sodipodi:linespacing="125%"><tspan
       sodipodi:role="line"
       id="tspan4622"
       x="524.08789"
       y="665"
       style="font-size:24px">10 eV</tspan></text>
  <text
     xml:space="preserve"
     style="font-size:24px;font-style:normal;font-weight:normal;line-height:125%;letter-spacing:0px;word-spacing:0px;fill:#000000;fill-opacity:1;stroke:none;font-family:Sans"
     x="656.44727"
     y="665"
     id="text4624"
     sodipodi:linespacing="125%"><tspan
       sodipodi:role="line"
       id="tspan4626"
       x="656.44727"
       y="665">100 eV</tspan></text>
  <text
     xml:space="preserve"
     style="font-size:24px;font-style:normal;font-weight:normal;line-height:125%;letter-spacing:0px;word-spacing:0px;fill:#000000;fill-opacity:1;stroke:none;font-family:Sans"
     x="925.18945"
     y="665"
     id="text4628"
     sodipodi:linespacing="125%"><tspan
       sodipodi:role="line"
       id="tspan4630"
       x="925.18945"
       y="665">1 keV</tspan><tspan
       sodipodi:role="line"
       x="925.18945"
       y="695"
       id="tspan4632" /></text>
  <path
     style="fill:none;stroke:#000000;stroke-width:3;stroke-linecap:butt;stroke-linejoin:miter;stroke-miterlimit:4;stroke-opacity:1;stroke-dasharray:none"
     d="m 150,625 0,-40"
     id="path4634"
     inkscape:connector-curvature="0"
     sodipodi:nodetypes="cc" />
  <path
     style="fill:none;stroke:#000000;stroke-width:3;stroke-linecap:butt;stroke-linejoin:miter;stroke-opacity:1;stroke-miterlimit:4;stroke-dasharray:none"
     d="m 260,625 0,-40"
     id="path4636"
     inkscape:connector-curvature="0" />
  <path
     style="fill:none;stroke:#000000;stroke-width:3;stroke-linecap:butt;stroke-linejoin:miter;stroke-opacity:1;stroke-miterlimit:4;stroke-dasharray:none"
     d="m 400,625 0,-40"
     id="path4638"
     inkscape:connector-curvature="0" />
  <path
     style="fill:none;stroke:#000000;stroke-width:3;stroke-linecap:butt;stroke-linejoin:miter;stroke-opacity:1;stroke-miterlimit:4;stroke-dasharray:none"
     d="m 560,625 0,-40"
     id="path4640"
     inkscape:connector-curvature="0" />
  <path
     style="fill:none;stroke:#000000;stroke-width:3;stroke-linecap:butt;stroke-linejoin:miter;stroke-opacity:1;stroke-miterlimit:4;stroke-dasharray:none"
     d="m 700,625 0,-40"
     id="path4642"
     inkscape:connector-curvature="0" />
  <path
     style="fill:none;stroke:#000000;stroke-width:3;stroke-linecap:butt;stroke-linejoin:miter;stroke-opacity:1;stroke-miterlimit:4;stroke-dasharray:none"
     d="m 960,625 0,-40"
     id="path4644"
     inkscape:connector-curvature="0" />
  <g
     id="g4671"
     transform="translate(-10,120)">
    <path
       sodipodi:nodetypes="cc"
       inkscape:connector-curvature="0"
       id="path4640-8"
       d="m 635,515 20,-60"
       style="fill:none;stroke:#000000;stroke-width:3;stroke-linecap:butt;stroke-linejoin:miter;stroke-miterlimit:4;stroke-opacity:1;stroke-dasharray:none" />
    <path
       sodipodi:nodetypes="cc"
       inkscape:connector-curvature="0"
       id="path4640-9"
       d="m 645,515 20,-60"
       style="fill:none;stroke:#000000;stroke-width:3;stroke-linecap:butt;stroke-linejoin:miter;stroke-miterlimit:4;stroke-opacity:1;stroke-dasharray:none" />
  </g>
  <g
     id="g4671-5"
     transform="translate(-330,120)">
    <path
       sodipodi:nodetypes="cc"
       inkscape:connector-curvature="0"
       id="path4640-8-3"
       d="m 635,515 20,-60"
       style="fill:none;stroke:#000000;stroke-width:3;stroke-linecap:butt;stroke-linejoin:miter;stroke-miterlimit:4;stroke-opacity:1;stroke-dasharray:none" />
    <path
       sodipodi:nodetypes="cc"
       inkscape:connector-curvature="0"
       id="path4640-9-6"
       d="m 645,515 20,-60"
       style="fill:none;stroke:#000000;stroke-width:3;stroke-linecap:butt;stroke-linejoin:miter;stroke-miterlimit:4;stroke-opacity:1;stroke-dasharray:none" />
  </g>
  <text
     xml:space="preserve"
     style="font-size:32px;font-style:normal;font-weight:normal;text-align:center;line-height:125%;letter-spacing:0px;word-spacing:0px;text-anchor:middle;fill:#000000;fill-opacity:1;stroke:none;font-family:Sans"
     x="220"
     y="85"
     id="text4712"
     sodipodi:linespacing="125%"><tspan
       sodipodi:role="line"
       id="tspan4714"
       x="220"
       y="85">quasi-elastic</tspan><tspan
       sodipodi:role="line"
       x="220"
       y="125"
       id="tspan4716" /></text>
  <text
     xml:space="preserve"
     style="font-size:32px;font-style:normal;font-weight:normal;text-align:center;line-height:125%;letter-spacing:0px;word-spacing:0px;text-anchor:middle;fill:#000000;fill-opacity:1;stroke:none;font-family:Sans"
     x="260"
     y="245"
     id="text4718"
     sodipodi:linespacing="125%"><tspan
       sodipodi:role="line"
       id="tspan4720"
       x="260"
       y="245">phonon</tspan></text>
  <text
     xml:space="preserve"
     style="font-size:32px;font-style:normal;font-weight:normal;text-align:center;line-height:125%;letter-spacing:0px;word-spacing:0px;text-anchor:middle;fill:#000000;fill-opacity:1;stroke:none;font-family:Sans"
     x="400"
     y="345"
     id="text4722"
     sodipodi:linespacing="125%"><tspan
       sodipodi:role="line"
       id="tspan4724"
       x="400"
       y="345">valence</tspan><tspan
       sodipodi:role="line"
       x="400"
       y="385"
       id="tspan4726">electron</tspan><tspan
       sodipodi:role="line"
       x="400"
       y="425"
       id="tspan4728">excitations</tspan><tspan
       sodipodi:role="line"
       x="400"
       y="465"
       id="tspan4730" /></text>
  <text
     xml:space="preserve"
     style="font-size:32px;font-style:normal;font-weight:normal;text-align:center;line-height:125%;letter-spacing:0px;word-spacing:0px;text-anchor:middle;fill:#000000;fill-opacity:1;stroke:none;font-family:Sans"
     x="560"
     y="245"
     id="text4732"
     sodipodi:linespacing="125%"><tspan
       sodipodi:role="line"
       id="tspan4734"
       x="560"
       y="245">plasmon</tspan></text>
  <text
     xml:space="preserve"
     style="font-size:32px;font-style:normal;font-weight:normal;text-align:center;line-height:125%;letter-spacing:0px;word-spacing:0px;text-anchor:middle;fill:#000000;fill-opacity:1;stroke:none;font-family:Sans"
     x="720"
     y="385"
     id="text4736"
     sodipodi:linespacing="125%"><tspan
       sodipodi:role="line"
       id="tspan4738"
       x="720"
       y="385">core-electron</tspan><tspan
       sodipodi:role="line"
       x="720"
       y="425"
       id="tspan4740">excitation</tspan></text>
  <text
     xml:space="preserve"
     style="font-size:32px;font-style:normal;font-weight:normal;text-align:center;line-height:125%;letter-spacing:0px;word-spacing:0px;text-anchor:middle;fill:#000000;fill-opacity:1;stroke:none;font-family:Sans"
     x="1120"
     y="245"
     id="text4742"
     sodipodi:linespacing="125%"><tspan
       sodipodi:role="line"
       id="tspan4744"
       x="1120"
       y="245">Compton</tspan><tspan
       sodipodi:role="line"
       x="1120"
       y="285"
       id="tspan4746">profile</tspan><tspan
       sodipodi:role="line"
       x="1120"
       y="325"
       id="tspan4748" /></text>
  <path
     style="fill:none;stroke:#d8d8ff;stroke-width:2;stroke-linecap:square;stroke-linejoin:miter;stroke-miterlimit:4;stroke-opacity:1;stroke-dasharray:none"
     d="m 1320,525 0,80"
     id="path3831"
     inkscape:connector-curvature="0" />
  <path
     style="fill:none;stroke:#000000;stroke-width:4;stroke-linecap:butt;stroke-linejoin:miter;stroke-opacity:1;stroke-miterlimit:4;stroke-dasharray:none;marker-start:url(#Arrow1Mstart);marker-end:url(#Arrow1Mend)"
     d="m 100,25 0,580 1240,0"
     id="path3010"
     inkscape:connector-curvature="0" />
</svg>
