<?xml version="1.0" encoding="UTF-8" standalone="no"?>
<!-- Created with Inkscape (http://www.inkscape.org/) -->

<svg
   xmlns:dc="http://purl.org/dc/elements/1.1/"
   xmlns:cc="http://creativecommons.org/ns#"
   xmlns:rdf="http://www.w3.org/1999/02/22-rdf-syntax-ns#"
   xmlns:svg="http://www.w3.org/2000/svg"
   xmlns="http://www.w3.org/2000/svg"
   xmlns:xlink="http://www.w3.org/1999/xlink"
   xmlns:sodipodi="http://sodipodi.sourceforge.net/DTD/sodipodi-0.dtd"
   xmlns:inkscape="http://www.inkscape.org/namespaces/inkscape"
   width="640"
   height="480"
   id="svg2"
   version="1.1"
   inkscape:version="0.48.3.1 r9886"
   sodipodi:docname="synchrotron_scheme.svg">
  <defs
     id="defs4" />
  <sodipodi:namedview
     id="base"
     pagecolor="#ffffff"
     bordercolor="#666666"
     borderopacity="1.0"
     inkscape:pageopacity="0.0"
     inkscape:pageshadow="2"
     inkscape:zoom="0.70477942"
     inkscape:cx="323.20676"
     inkscape:cy="342.92178"
     inkscape:document-units="px"
     inkscape:current-layer="layer1"
     showgrid="true"
     inkscape:window-width="1309"
     inkscape:window-height="748"
     inkscape:window-x="55"
     inkscape:window-y="-3"
     inkscape:window-maximized="1">
    <inkscape:grid
       type="xygrid"
       id="grid3115"
       empspacing="5"
       visible="true"
       enabled="true"
       snapvisiblegridlinesonly="true" />
  </sodipodi:namedview>
  <metadata
     id="metadata7">
    <rdf:RDF>
      <cc:Work
         rdf:about="">
        <dc:format>image/svg+xml</dc:format>
        <dc:type
           rdf:resource="http://purl.org/dc/dcmitype/StillImage" />
        <dc:title />
      </cc:Work>
    </rdf:RDF>
  </metadata>
  <g
     inkscape:label="Layer 1"
     inkscape:groupmode="layer"
     id="layer1"
     transform="translate(0,-572.36218)">
    <image
       y="572.36218"
       x="0"
       id="image3112"
       xlink:href="data:image/png;base64,iVBORw0KGgoAAAANSUhEUgAAAiAAAAEDCAIAAACDOyhOAAAAA3NCSVQICAjb4U/gAAAgAElEQVR4 nOy9e1yT990+fiFIUiCEAOFkwikOECWIDrXViqD11GnV2Y7a1lbX9Zlt7Xxa27X7rXR1fdZWXX+u tnXP2mmrtmXVqpN6nEqx2qo8HgDxQOWYCDHhYIDYBIl8/3gnH26SECJyCHhfL1++kjt37twJyee6 34frenu0tbWBBw8ePHjw6GkM6e8T4MGDBw8egxM8wfDgwYMHj14BTzA8ePDgwaNXwBMMDx48ePDo FfAEw4MHD7eCGTB3vMFjoMKD7yLjwaMbOF2uATA2Rgp49ve5DAiYARhMBgD1epPW0M4cIb6eWoM5 xNcTQKBY4CvwtT7Cf7ADHjzB8ODhOsyny3VHzp/JPVupkAWUqq8DUMgCnkpPv7uZxsxljnKdlraW X1MDqNLp2X6RUnFMqAxArMgsDZKhA6PctZ/eYAZPMDx4dI3T5Zoj589U6fSRUvHwMNPsVH9veACo M3rrmzx2nNDnnq1MT4nKHJ8qD5H298n2EswAVNp6RiHl19RVOj2xLACFLCBSKgYgH2oSBCHKLxqA OPhGmH+Sr0AHAIgGKjj/M/DUMmjBEwwPHk5g3n6qOO98MYCMJOH9SdIgYYvD/VrQtje/8UiREUDa qJELx40cmOum2WAy1OtNJytqYKUQADYswihEHHxDLGoLFpoBtMEMwMPBu5bZbYm22zIQPyseXYMn GB48uLAkwShYoZVUGR0SKzW5+PwynaCwQntFI6jS6Z9KTx8bE9arp9tdmA0mw6XqG+U6LdEnAHq/ bA9BEAAoo0PEojYAXBbpDHbsYk8tsItgPLmVfEq18WWYQQOeYHjwwOlyzae5uXSdnp4StWCCWCY1 CuDV2XpaphOsy6maGCGcP9OSK7NHndH7zS9Uperr6SlRL8+Z0cdrpcHUaBOIsCiEQLHI8DATUUhn kdltwVH4AkBWa6z5qTG+xaNEX+tT1uQJa3kGAJVkYqQhVOSXhwQC4Hll0IAnGB53LczbTxVv3H8c VlLhhike8LRnl8KS6k+OeZaqr9PqvOXz3bLEZAC/mRXGqjL22JWv/3ifRiELeOexB30F/j3+LlhS K+98MTeXBYAoJMovOjLGIBKanFBmt9GCNrVO2NxQXqb3pbjNnsnoBlX4qbxvJRICTyeDFjzB8Lir YF6Tc4D1NWUkCZ0QA0OZTrB8QyEAhSxgxZxI4qF/7dcD+NVMcQva3s8xUV8Ze9QeZy9K/rjthLXl rHt5M7NKW09EAmtdhC3fVCIKFpqdUIhD1uwSLWgD0GQUXK2qOHg5sDMKmRghHBFrGBYZDUs+TQao O8mSwS5FxnPM4ARPMDwGPwymxo8OHss9WwngrYcnjBnR6Mo6S3V7Cj7smWNXvv6KRrByjpBtYTyU nhLF3c4Fy5spZAHrlz7idGFtrwZx45Il9yZExhicE0n3QLFIYYX2SJHRhkJgZZGMJCGl1Do7gY5Z MoccE233JJ5dBi14guExiGFek3OAYosl9yZ0ySse8CzVeeWf1m4+paEti8eFOayyeMCzoER18HKg PZG0oG3n/sbNpzQKWcDapSEOwyN6IWKjpTMnzkqOhlVEwmWU9JSo4WGmLuOS2wIRQK3R82pVRZne 14ZLFLIAFoiIhKYuYzuHB7dDZ6V+G/A0MwjBEwyPwQaVVneyooYq2xlJwvmpgZ2tzi1ou1RSU6b3 BWCqw/FqI1zLNcFRBGNzZIp+0lOi5ENNqWMd96Fx2QhApFQ8dXh4ZIyheyV3bjmE3hFBEARTHVQ3 BQCIvVg4Eis2DIuM7pEKP26jiwycRjKeVwYzeILhMWjQQbPSWXGFJYKoIg1r2kcmNd7WBfvaHOPw MNO8VLHz3bj6GCcVmtuCDZFc0XRgDtZdHSs2APCTxIhFbd0IR7oH13Qw4COYuwQ8wfAY8GAlFvtm MAZa6IlUqLcKgBPhZJd4YeO1pyeZlXERLu5PHWjoSrBpAw94mtBKjEhRCOtQYEQCIFZs8JPE9Ah7 3SHsajD2iAZgJ4XhMTjBEwyPgQpKhTkPWeqM3t8V6ajSkJ4SNT2+PiEuvEeu5V/YeK0bEUmZTrDj hJ5FTk7OmaXsWFwyPMxEGa0+C0e6AZfLMNF2W3iaGYTgCYbHwMP2U4Vc+xaH9ZLCkuqDlwMprOlB XmF4YeO1NxbJu10suVRSQ5IaKtKwAgntMFDoxB58BMODC55geAwYGEyN+woq8s4XU9VEIW215xUW ssBlmUv38OCqyzuz4u7w4HVG703/aaRmBEpz9WW9pDfA12B4cOHV3yfAg0cXMJgaX/18D13Ue3rA 2vtrsrky+td+/fFq48QIoSCox8rpvY0gYcuSB/w3/QfzUoWAGKBzHqjsYgfSwdggGgAfwdwl4AmG h9uivSvMmoxy0BPMpIuLx4VxdCd9wS49EmeIhKYqnd7hWxv4UDvSWlYA6BjBUBjK08wgBE8wPNwL LA8GYMm9CXMsnGFb6uBK4p+eZFbGxffHyfLoEp0p+Sv4COZuAE8wPNwCxCtksrtggnjhuIg2mIEG m3wRSehfy27qX14hey4eXcFhiqwCAB/B3CXgCYZHf4JajQHEisxTlIaFQt82mO3rK+jofr8ny1X1 SS+hZ4vwperrQGgPHrDvQTIjm9bqUvUFAMAF+/3JSmD90kcA8NQyiMETDI9+gfl0ua5cp42Rhiwc 1wDrJCt7XmGeKwDWL1PGSt1iIR7cEQy54NBtaqFm/dP2JpgA0lOipg4Pf/y1bVvfnvF0rNlPEgNE ikVtgJzGlBlMKdapyWCxy+ly3ZqcAy/PmcFHMIMYPMHw6DsYTI0ALlXf8DDWJMQqxsY0AA30ENdJ nmsRdqTImJEk3JNFqbAB0Bh2u2gyCvrldekD5zKlWieUSY1NRsGCJ7NXv/vkggniwgotgOEwTY8n 2oBYJBcJTU1GAU2XAWBC6879jX/cdmLporQrGoGpDoCW3M8YVDePsdHLbL7A+qWPlOtkKm29PCSQ Z5fBCp5gePQBLEOxAsUCX4FubAwAf+AsN0dPi92lkpqLZb7Hq40TI3xHxBoS4sK7NPsa6NA3ebA1 t2dRphPkn9aSlwwt9zZyTjZRhhuXbH4l6fmV86p0+sIK07xUcQvamowCfVMIsz6jo6luCgATKXh+ NVN8vNqYkSSclyqsM/qHvf7jtkcCBEGI8osGQMMFgA7Vsu2nDCptfYw0RFentg4f46fCDELwBMOj 92CmEesEeUhjx0ct7ELW8RfLfFU3BcPDfFPHhsyfSb6Tg5xaehuFFdrj1caMIKGpDkQzw2GKFRsQ b3HABJgTQSis2cjFq4sUsoA3FsnDXv9xWZGRHS1SGgiA3M8EQZZD+U2IWb6hcHaqf0aS8ON9GvJY WzZCODvVXwAvgP7iDnxiYqS6kxU1MdKQsibPMZaNPLsMQvAEw6PH0a6u9xX4Wm9WANHWDiIAqDXW 6Ju88k9rAYyIxbQpUqvSxeT+SsMmo0B9ocDmqtwGHvCsNXr2lBN+9zAxQkghYAvavOHRgrYmoxSA vglXqyr8JDFXq6rL9L7MRvPpSebF48I2n9KIhCHTRcY3Fv3MzlaAq9cR2yQt3/xCtXZpyMQI4d78 xvmpFJc4nDlWkRAhPXJeHSMN4WzkI5hBCJ5gePQgWLXWbP2fIZqxS6lOc7Zc5Omhi/KLnjZFGiw0 A4H0lB6f0thLEAlNF+TjHT5EiT42Wvg3s8L6K8sXKzYc1ARSlWX+qhK23ZqR8wSqAM9IqUA+1DQ8 zDQ93vxadtOerIjHD19fuVFLu7nSL9dkFMSKDbR/k1EwbYr0zS9U81PpQYdTk6N9rYWn8mtqQMmz y2AFTzA8ehCeHW904BiDSappLDpbLkqJwRRlY7BQCcCaRRlgaDIKpouM3C1lOgEbNqyQBTw9qX7Y A9EiYcj8VSX9RTDKuIiDl4178xvpBHZmxQEQwMsRi1NcIgYuA5guMpaqjekpUfomjyAXHAb0TR7D IqNL1UXpKVEAgoXmUvV1gFrJHUcwQDQrBZ0u1zg8bIivJwC+BWBAgycYHr0HalE11OtNAALFgjD/ pIXjdADLm6k70eK5O0RCS2qoTCdYl1MFgDzQnp5kToiLU+uE63KqAFWkVExrbn9hyQP+i1cXzUsV K2QBap0wVmpyPUYcHmYqrNDGSrtgR4UsoLBCOzvVn+7qmzyChGYAJrQ2GQX6Jg3gpa9tLGvyJBWt lVdOlaqvJ0T4vL6lMiZUFisytwnD6QjEKzwGB3iC4dFLaO8cs7YJVdjtMyDZhSyQ844WvLAxANY5 leTi/Mkxz9LsElgkOy41VTc3lPfeFToRYQvaMpKEO07oOxvwzIUHPA82CZeNEEb5RVc2V3S5f0aS 0FRnyaRR71msVJyeEhU4bVva5GTah+bZAJAPNcWMGjk+OjxQLHj18z0ADjYJsf84d5+YUBkAKs+E +HoaTAZfgX833z+P/gZPMDx6FpaoxVfg6yvw9w1xXIbpiHaa8XDjMkyd0fvQt7rNpzQAfjMrrP7Q wwAuldSsy6mitFhGknDt0hBviybfVcmO2TwSuOTizrf7+TCRjTI65EhRlSuWmia0ThcZM5ICDl+p AQQArJ3KHs0N5dTsR+Ul2l99oSBtetqvIAZQqr4+MSLMA57Dw0xpk5NZ+3Wp+jqnE1qT2SRMVJ2U JSb7CnyXjRCuX7rYKcW66feBhyvgCYZHT6Fdj2295LQp9Vc44hi3DmLI+owmgwH4zaywnVlxap1w xwk9lc1JRJKeEuVKcOAQlc0VEyMsz60zeleV+3p6FpfpfWm6M+zE85tfSepGZ5rDOIn63L4r0gGg CTp5RwuajEkA3vjrgbTpaRu/yMs9y41CAoeHmab6hYsniPW1CZXNFVc0glygVH29BSEKWUDewbzj soBfwRzlFw1oMpKETApzj4fyp7bCezyUvgIdEA0sXr7xK3p3a3IOsFOi8MVyWxoCICHCh49gBi54 guHRU7C/CO20kYwDd2QXUoSwQctvLPLXN0Wuy6k6UmSkhfjpSeYX5rBpY6Frc4wPrrqcnhL1whxB l21XFIVwYxHSP7agLeoXW//0u7nyob6CIEyPr/ebQPPHQlhlngzZ3l/ahV8OizlIig/ATxKz8Yst pepkG1klrLmpjCTEig2l6mR9kweArBefzTtfTFEI7U9RSC4AaGBtRZsYgd/MCiMjn0ipOG16Gr3B yBiDQhYwPzUQaARkgD+g80U4QIYxFUB0pLW68+z0SdZ2dr76MtjAEwyP3gPrPWU0Ew2gI83QFWv/ 0wx3jLFCFjAxQrhiTuS6HFTp9G9+oY+Uip0MMVs5R/jCnLi9+Y2pmbtlicmsAMNalnPPVto/y+p/ Y8HO/Y1LF6VV6fQvWCYUtM8fY1REsUthSfWwyGgA3xXprKJ6cNNWsBJAJKdEnzY5+a2HJ1Q2V6yY owRA3EN8mXu2MhcAkHe0AMuU6SlRq977SJaYDGDJvQmRMQYyhjGh1Z4+W9D28T5Nk1EgH9oIqZii LrIgs8JhpzIAGEwGhSzAV+DLU8tgBU8wPHoPnnYJ9Aq7fXqGWuqM3lerKpiXiYudwdRbDOCKRpB7 tpLqKBlJYQCOFBlVN/UdScUBu3Bt0wC8+dKMj/dp5i/f8sRjc2mpjZQGTo+vX/JAUrDQzC2f7MrX 78rXK6NDQLXxkvrNp5rezhSV6X1XbtTSBGV2WBs8kXUsbbonrPxBfpTszC3navGGsdwVi9ryjhZs kgVESsVHiqpoIwUuyugQsUgOQCQ0zV8FsahteJjpicfmEimOHFHvDQ8iOcYu9qUgfZOHIIhiGwtK 1dez9wu9AhWeHqWmunpYAzVCle4Uhw49eR3MYAVPMDx6FbcdwbhSx25Bm1onLKzQMgk65bIADA8z UcamM46hdi8AVzSCKt01ABMjhFU6PbFLrNjgJ4mRSY33J0kBAG2FJdW00JvqmN1AO1Zu1G64eHPr VAiCQM9dvyxELErqOH8zAmixsV+eneofOG3b0kVpdPfg5cD0lMDXsit3ZoUD+HifZvG4MLKMJJcX OjiAWHH5hovj0zpGJ8PDTLQPADp/2t5kFOSeBQCR0JQ2OdmaW+OWi4Qc4vQAECw0x4oNR6wmMTv3 N9JpkA8/wSbJpr5QACgByIeaqqwbFbKAzJmBJujIO8BafYE1UxoNQKWtj1nzzfr2Wh3PMYMNPMHw 6FV0GcHAxSCGiIFK35TFipSKh4eZpovrhz0QHSRkZQnh7FT/lRu1yugQFnxw1fUAIi2ZHCOAjCSh Mjpk2pS2N79QHSkyHrHo29tBHlzDw0yCILz5heqNRRY7YeqqKlU3bZ0aBguf2VqnkIqe7cwiElbA X3JvQsqIBsapVboAtU4INDrS/1sOXoaYZSOq1i+N4NCwkLMPyGuHykgUIZHtsfpCwdqcKFj9xBiY D2aVTp93tABIJNUkPXq82hh5UywfaspIEsLKYYCI2I6Qfzpsxwn99HjDQU1gpFRAFSZ6SIBogZBS ZLpaY42+yeNsOR2hmHaYLjJSzyHPLoMSPMHw6FU4jGDgShmGsl5krkxbiFEWTIiUSUOs6RohILYZ qOwNj7VLQ1ZurFoxJ5LU9bDyhJVaLLyikLbSfLNd+ZZ+LVY+oSXShNYW4w0TJAD0TR5Hiqoyntoq S2QNuJ4KWcCvZorX5hhf2HiNFCFseop16NZ1azkkkK3sVMCPlM6tbK5IgZhRRaRUzMryzmGVMXo0 N5QD4FIXrGLGjV/kbX17BnvKBfn44WEmyrzRecqHWuiQzCunx5uBtJ359Uw1SVHdvFShHYeBS6Wy mf4rN2rLwnwpzehhFdKeuehf2Vx4RSNgCTG6LJAPNXkFKtjTrezCRzCDEDzB8OhtcIOYCke9ZO3U Ql2z7AKf+mJXjI0MEdX7CWnZcskN0xsekVLx8g2Fi8eFURPw8Wo98dNvH/DzE9KK2WFuZkaS8I1F SYtXF1Juip0DAKCZJYUuyMcXZsXCOiHthY3X6ozeSx7wXry6MiMpbESsQaDHggmWcVsiocm7w6hK 7jLdHl2RWkXf5FGluzY8THhFI6CUl0MUVmjzDuathCW3xjU5BlGXJEYs8r9aVVGqTqZsoQmtAnhN FxkpzFI6OB/LWa2Na5u/quT+JGne0YK0yckTI4TcsS5OPu2nJ5lfy9bAkj2zzBslJc3wMNPU4QmR MYZgq1YfADdRBoBnl8EKnmB49Da4QUy0I1tlT+qGokhlYoRwejxlvSguIUZxXO52ggUTxLlncbza GCkVT4+vnz8z3BseDpWGLWg7UmRcMScySGhSyAJUNwXTxfWxYsOwB6JJCe8NDw9EMEbhloienmQ+ 9K1u0tjW9JSoealC6/LdoarRGap0+tyz149wLPHzDuY9PWnSkSLj9HhznVFKHcPc3BqAj/dp3nxp xuxU/05MjsUeaAVQZR6ZnlKzYIJ4xwm9N6cPzeaN24dBClnAm1+o0iYnv50pKtPjSJFxREn7zAXa h827RLv1iydxEjmegcLBpcQ0voA/YKNlqSB2Kb+mBkby7DJYwRMMj96GzdIWDVSotP4nK2rKr6mH h5nMbYpYka84+sa0KW3U3tpml/XqEmU6wY4Temp8suZh9ACenmRWxgmBiBa0Uc9Yx9AEFN9ESsXr cqreWCQHsOQB/yAhrdctjCFogfbgrINUOPGTxByvrkodGwm0H9N1rF+mlEmNjCrK5jyx44Qe0F8s 8y3Ts04Ez1J1e3tW3tGC9JQobkOXNccYzTmwZ1lToXyoKVZqYgrQg03CB1ddZup6SlVZE2U0jMdk qgN1OryWjeQ4eVl+fan6epm+Q3OaIAjcAIsNu1wx54nlGwoFDpYUhz3K0cQxXGUlj8EHnmB49Dba I5jT5bpynba1vtQrUDFF2bhQyIQgHQowLjaSMdkKrNWCF7Li2BzfSyX1iuqA17Kvk0Mw7TMxQjh1 eLh4gpgxDVm/ULHkuyJhqfq6SBjSWeTRBnOp+voLGy138w7mkeqluaEcCLTZmVVx1DohAG7PG+2w 4aJx7VIjgDqjt77JI/+09ni10apqtAhZvOrOICiR7FjyDuYBoMYzD6Q5v+ovv6Ye3s4L8ICnYU0k bO33hZz/0TGDZ/nQFo/rctyAJd3XgraDTcLlG6vXL40o1XlxxnTSH9eWSAwmKWAov6ZWacPlIVKn L8FjoIInGB69jfb0erlOC8ArULFwnK9d1qsLzxjqIiN1PW1RyALIvbjJKKCHqORASE+JykgyvbEo Sd/kseOEnpb149XG49WXAFDejBz1AazcqKVg4uN9mk4M7dvBhPRrpXOrdPp1OVWRUpJSRnFjIwaK FQRBSB0bkgoAYmo9ePCn06mZJwGU1gJW5vjXKzITJByh4jgAs9XX1y99RHkwL216WtqokQC6zCll jBrz+padsLZrc1UsLqINZufVIBt4w+PtyaExobLZq44DUF8omK1O5jx+wWb/XhoUzcOtwBMMj95G +/yxWJF5zAilwWRYk3MsJlQ2Kznaqo1wwC40Up4rv8hIEi6512KBRUv5a9lNCpknPbRiTqRCGmFC KxPP5wKPv3aAygkJc8LtVtgISoK1oC3vYF5G0owuremp7Zhh5RwhICRz5cXjwqZN8RcJBaR4ZzKd SvWF3LOW4Gao9jCAmyEj0yLqM5ITlXMenb98S2H2y77T1ixdlLZ2acj7OSaRMF5kSXa1U4hCFrD9 VHFpLdIAiv+6/NDHxoTtzXpm+cavjhQZ31gkd8W+zAOedOb5p7V5RwseXAWFLKBK12EfriDGRg1D eDlrRow05Mj5M8/+/jHOPFO+xHKXgicYHn0Ai6RfGiQD4CvQvTwnvlSnefXzPUvuTRgzwlL+pWo/ i1EoozUxQkgrWqn6eqkaCpmRdQGIhCa1ztKI/PE+DdORK2QBEyNMlPVauiitS+euJqNAlphMVHSw SUjhC9NyUhGe23PM7fvKP601GS5V6aNz1dcp2zZUW1xe2wpAlpicd7Rg6aI04Lp12FciAI5MpBUA 1U4ipWIBpgJ7AQfk8VR6+qq/vkXu966wC/vY1y999HS5ZvHqnfYWmfQubIJCAOkpUTGhCsOhDw0m w8Pvfq6QBZjbFABipCHlOu3P4kMmjvEMFAtoEINDD7GxMWFjY2a7fJI8BjM82traut6LB487giWC UWnrrbNhQI1ka3Iu25TcBUHgNlZlJAnvT5Jai/9mm0QZlV6i/KIPX6lhfl+Ue6Fi9cHLgV36HF/V 1T2zoXbxuLBfrz0AgNZx9YUC0ruQwJCu3EvV19UXCgCU1kIRjLTpadQjMCLWQOZgAIKF5p359QCu aAR/+tvu7z+a9Fp2096sRACcarwnAIOp8d4nX6GjLV2Utn7po2ty9r48p9OlWaXV/dfftytkAWmj Ri4cp+xsN3sYTI0Pv/s5OR2QVIWpc9JGjZyVHM3rHHn0EvgIhkcfwNNODWPBs9MnURxT2VxBi3hG kJDU8hRAgGPpmHu2ktb99JSoiRFCKpgfKTKWqk8oZAGLx4UBIF8TwifHPAF9l0NQ6hpM9MRpCV43 Q6jCATIGBnCkyPhzcYXWO7nqzOH0GbP/dLSg8Msn1uVUZSQJOdVvS9sbhSbK6JDlGwoBKIJhNo9U yC7BKlvhwlfgX5j9ocFk+OjgMQBdDj4hbi5VX3/lF+HO97R/ob1Zy7afKhwfHe6EwHjw6HHwBMOj b+BpMDUGikk/EQ3AYDJoGovOlhsoFqEwZZrR87si3ab/NFJYQ/EBcwtWyAIWj5shCIJFaKIBrMkr ths0VmVGNarOHI8cM7HLnrQyva9C5nlFI7gZMjI9Jar60g9P/GJByogGzi6hdUbv3LMjmfQdQKzY 4NHeOSbjdAl7KqT439/GAVj9TUCbMNzpPDFPX4F/TKhs4/7juWf/QRzpZOe9Wcuc7uAMtxX08ODR I+AJhkcfwAx4UtbeYDJcqr5BzcpxUdEpMU17s6aX6jRMwD8xQjg8zESC9uPVZOsCAGxL6an2LjIA 8fdUo6768k8RXnUXyiobAJTXtsoSkymX9VSSsMuO5ysagezWhSpdLIDhYaYqXaI4+IbNPiKhSSEL 2HxKkzY52bstDqhqHToNkHaWWaK+20ip+NPc3LyDeVj6qJMTWDhOOT46/GRFzazk6K4+SR48BhJ4 guHRB/AEzFqD+WRFRYw0JMCvdFZEEhB9uaz0bLlox4nL1MU7dXh4ZZjpikZQVWSxdRkeJjTV4eN9 GmZtOTxMODEibPMpTfw91aPF1wW+CalzZopFbSKhSYDE5Rur8w7mxQR7kUt9TLCXMjqky+nF8qGm vxxSASpZYrIyOuTot/uBSI6mUgZAgOj1SwFg+6liisPKddqxMc4DDmSOT139zaGsF5/t8gOSh0h5 LQiPwQe+yO8ABlMj2uf+8rgTmA0mQ73eBICajujuyYoaAOXX1FU6fdqokXSDKEQZHcJUkNx5J9WX frj8U0T8PdXjk8akjg3hCuAZ6ozeGU9tLa1F2uRkqta4MmCYGsb0tT6Hr9QsmCBel1O15N6EMSOU DqOT7acKN+4/nne04NIXf+YpgQcP5+AJhsGs0tafrKih5QPAP1fOyJw5nz1sMDXW6026OvWmHy5R 2WDpzIl8XrtzmK027KAIxmAy7CuoKL+mBjB1eHh8rMJXoDtzsfHwlZolD/gDqCr3PXylhjWVyW6V aRqMrUGJ1FqmjA6RSY1dqiDPXpRs+WZHRMK9Wz7fHRPstXXtDKtLZgdYAxSuyYrnmpy9NAvgrYcn jBmR0tn7Ij8C/k/Pg0eXuHsJxmBqpPWO1hQiFYYb1Q0AZmVOAXCwSZiosiiub1Q3JCklU8dKyyob IsdMXO80t86DeIV7f19BBaxqwdb6UgDHq40kdqk6c/xmyEgyMwZo0mKbzSBIF/HCxmtkrJKf/bDV HcuBYZfNs+grkXe++J3HHuTjVx487hx3F8GcuXi2pLLiy28O7z5iEVR81jIAACAASURBVCj7REgA ZGXKwyRD5MP8VqwrLipsYNsBC6O89HDU6CT5uSLVsxsqL385dZg0aPPXJ399Iqx1zZL+ei/uDS4l sHXcbDAZLpeVAihr8iT5xZqcAyxkeWORPFgYzpX0d4NaAHjAc/spCU2V35v1DK/w4MGjvzDoi/zm 7P27K9UXPj+kIuYA4BMhWbEkbnSsz4IHR3HzJ/Oe31FU2OATIZmW4LXrgwW0cUji/8oSkxf/0mLL eKP6XF2DaZgUAARnTwI8wTiEwzXdE0CbMNzDWGPdUhETKqMSCwAbdoFrrpd2dsKeABaOw8Lsv3f/ 9Hnw4NETGGwEwxJfuWcr844WUKaLMDdD+ugvpj44xcthUp7gEyFRBIOp7QjMla+uvsHRk3jcBohd WutLiQ9iRebD1wScxx1Pt2x/uiM64cGDh3tiQBOMJeVCleG8g3ksRiEkKSUIlrCNN0NG/mqmYzfD 3BPFqqvNdLu0FjHaYoA5yaOt4gdgHrt7scxXGQcAimDwk/huB2YAZU2eYKJIRAOFnKkksKeWjozC f9Q8eAwkDDiCMZ+5WLjph0tVZ46zOgphxZK4x6bJvz9Xw7YTtaxYEhcmEa7KVg3tSBvNRkP+uYr8 842rslXcQIdVXxjKvEZw75oMl4DxmoZb5LLOw2V4+gp8ZyVH1+tN46PDfQW+5BnDHQ7PRyc8eAwm uD/BWLpC884X5x3Moz4ueoCKJQCIUdZtKqEE1zsvKlNH+U9demxuhvSrD+aTWuLzQyoAm78+qWm4 BYDxEB3kvkzlzMlRdfUNU5cesz8DG2aiI4RJhvT2Ox+U8BX4+oawFGU0UFil00MqjgmVOTQS5sGD x8CFmxKMSqvLPplPdRTaMi3Ba3Kc95ZV4wCMnpcD4EZ1wyFIpiV4vfOiEsCr7xXmvDUyfQIrnxy7 GTKSq8XbfUTHJZXDGycFBUqCJIJh0iDaIfdEAx0WCR0EdKwkExTYHtzIh/ndqG4wmAx8P+vtwDYo GTNCSR7+HJdlHjx4DBK4I8E89PzzLM2VpJQ8Nk0+c3JUQpxlYNRVXR0AnwjJjeqGnLdGTpyQ6A2P 3BPFAPSe7WNZfSIkNpFHklKyZdUkAFxScQia58FgcxwCkU293uQbcgdvlQc8eT08Dx6DFe5IMIcu ta/vRYUNrxY2rMpWTUvwkgcOWTD7Z9wwQu8p48YozKedwOWJyXHem75v6ZJa4KgGw20qY49SR5nV HpgHDx48eNjCHQsJNJx8x2eZ53bNObxx0nMLQxXBOHSp9cPt16YuPUb5Maq+iM2WpiNinZNFZ9hB FMHdfHVuwZ9G5MbfU215FYkAgKbB6PCJPHjw4MGDC3eMYCZGCD8ApiV5+QkjgIj0CSNb0HappAbA /qOVJJmMjZIAOm5ODMDlnyI6O6aq/lY3zoTCI+5hFcEd7moaixTSid04Mg8ePHgMergjwcRFRQMo q9Ir4yztRt7wUMZFAFDGRTz2UFxdgyk2UrxuU4nYrAbapS2xrRdZsSQm2IubIpMHDrlR3cBE+E7g EyHh9h8nKW1rOeoLBS+uqT58Wgdg/vItf3hKmzlzLt9Ty4MHDx42cMcUWXysAkCZ3rHefpg0SBkX UValB6eqHyQR+ERIuIKV2ChJUWEDm+qRmtz1lFnKs9nk1mKCvQ5dal39yQ9+076Sp20vKmwoKmxY t6mktBYrlsQVFTY8+mK2R+Ki2as2nC7XdOPN8nABZs6/0k7+OX8uDx48+gHuGMGQx3tj1SWkju9s HyqH2IAbatxs0qOjW6J99Z6L3BPF+ecbaZ8b1Q1XdXWHj17567ZKUmu++l6DT4TkuYWhqcnh8mF+ cYowahZ46Snl4aNX8gtqPsz+dl/2tz4RkqWL0iKl4szxqXxzVCegv0gF3TGYpD+1FQLQN3lUlp5R XW0W+CYAMBku7ci9Wl7byqJJh2LYG9UNNn9W7hZ6ik+ExJQyfrrIeLBJSNuni4wAFLIAr7oLl3+K oO3TRcb0lCgaSKOv9REH39DX+rDDVjZXAIjyixYH32huKGfbgyQCsUiobzLKpNRN2CFn29G8GXyY y+NugzsSDP0Oz5XdWNz5HmKR0GaL86o+yVa4W67q6kpKNaqrzTtyr3JNAYqqAUCetp3ukpWyfJgf 9UPbHHaYNGjxL4OmTq6TR5a8+l7hjeqGD9buAvAKPgOw+t0nX54z29lpDX6008mRE3vJj0fTcOv7 czXUK2jzRwEAnGO3GFUogoFgydSx0ptN+qMlLcQ6imDEJEgZCSmC8dg0eZgk6lyZZeBxmEQ+JDQl pKUA0Ah8E9JvCgBU6fSlaiOAUvV1IAJWvjnYJDx49BoA4Hrnb+ec3ZabAJkM0f9ldMCDTUI6rOX8 rXZ2AGiuGoArGsHwMFOs2ABrvG6dUBDOMxOPwQH3JJiuQYaV3CintBYxHI6RR4YC11rQxmWFrPdP 3Dc6fFW2Ch2XtrkZ0vtGh4dJhuQX1Hy4/ZpPhIQM/KdOHm7f1kwdB+eKVJqGW9xDkY+ALDE5LaI+ TDLk2Q2Vxw7svZsIxkxEUmusKTx3VnW1WdNw6/NDKlr97YnEJ0Ky5D5veaQyTDKEmSNoGm6ljvIH EBQooapbN7C4fZ4YhbDjOYZmXKjtN6p1Z0pKNXpPGa3+9ye1h6HBQnOt0dPYVFPXYAqSCNj/zAJV 7ymzskVAukZAYwg2XDROFxk3XOR0Hl502IV4nfP/j8BRG34qVV/nBlghwVeEovB7PJSckW48eLgd 3JRgfCIkTlrCPODZZGwEQOkUAFJpoPMIhuorJOYnJX/sjLjRsT4AuKb9i3+J9atsn0uuZaqrzefK bhw+reNaaiYpJZPjvOWRytRR/hwTAVzV1Sm2Vdq4Mg98mA0mg6axqLBCS5KjSvUFVdU1Vf0tFkbY JLIUwVhynzeAoSLLpy0f5pc6OtqJofWdw4Oz2tLtNpiBSg9EddzRnnIgk46RdZ7aDBYCwnDagfu/ DZI5t9c7PVUTKtQ6YXNDuZ8kprmhnBgL1oDGVAdBEGh6tEIWkHu28rUmISfA+hH4kR2K5f0ApI0a 6elRGuUXLQ2S3eN/OVh4L89APPoFbkowimDkHS1oQZx9VgpAG8wioT+ASvUF4F4A3vCgajzbh7zC 9uY3TkvyKqvSnytSAfCJkHz/0aQuL42bjYayKn1dfcOOvT9u+r6FG6DEBHs99qKSppPZL5TNRoO+ yVhSqsk/31hU2DB1bPWdfhC9CwthNDeUl+l9G6suUSRB0DQYyyobiDnsCxsE+kwI0xK8YqMkYRI5 ffLyYX5cxu1fWCnHQcjSvxAgWiEFpGGA5X9irOTOn2JCRZNRAGvViumOy/QBAI4UGQFs3H8cwMGm 65TTmy4qon0UsoC0USMBxEhDQnw9A8UCPgDi0atwU4KZHOddWtvSYrzh3cmlbhvMPhESruZRHjgE QGFJNYAgiUA+zA/AG3898DjHH/OfK2co4xw49lPWq66+If984/fnasprW9lcyyX3eacmjx6dJAfA 7GrYs67q6uiS8+Otp9iFPHu5fxzQXf5pQ3pKVOb4VHlIYD/9jM0ADCYDLSUqbb2uTl10YX9+QQ0V MxxVQZCktCxbMcFeMcGQ3xdKbXjyYX5sRaM+C6k00OFFQD+iDWaPTj9qt+OY24UA0QIhAAQLoZC2 J2CJk+ancvdVm9DaZBTomzzoGuKKRpB3vrhUfZ3b70DlovSUqJhQWYylVQEJET6+Al+eeHjcIdx0 ZPJ/r3n9Hwd0NJy4s33mPb8DAI2evKqrm738MHdmJVs352ZIASxIHzY6SW7DEIUl1RSmqOpvHbrU yiIVuhh/6qH42EixfYzCghv7BTpJKYkJ9rpvdHjqKP+c77TcfBot2bLEZIUsIFIqfnb6pF5wybS0 zJXqTgBobii/WOZ77PtcYj4A9nTiEyF5ZoY0TCJklQ/aHhspBuAt9HE38nARnRMMYWBzjIuoNdZU 1gwv12kBlF9TV+n0kVLL1RW7TYWiUvV1AIx1ACSqTl6Qj4e1uQ4A0Q8n7uG5h0fXcNMIJkwidHhl zQWV63NPFNNaz13KY4K95PeFTrovfUSswYZUqP94R+5VADaksmDZ6NFJcnu/MoqKzhWpqHGW+0JU ywmTCGdOjgqSCLiX88yAoK6+4W9bL9NrFRV+S49W6fTrlz56x58TaEBOZXPF4Zxc5lbA3hcX9B7l 94UOFYkBjI71cfhmBwecBjFoc1CPGcAwmKSaxqLrzQrGJa8dvQZg2Qjhhos/0o1IqZiSY+XX1DGh sphQGVEOHcEmoBGcPYlgCM6eVAQjrxbkaM5+KbAaNd0MGamQBSy5N0EaJONZh4dDuGkE8+4n/7Mq W1X45ROxUlNn+xSWVJMvGSFJKXnzpRmxYkNnYcen/75cVtnAFl/iIYpsbNZZ2p8YBR3Xa1qmf/d4 fFCgxP6FGFrQptPVl5Rqcr7T2r8o1YoMhz7s1g/SrNLWn6yoOZ63jWokNnM82acRE+wlDxwijwyN S06MFRts+O9uwOCOY2qNNZv+05h7tpIbeSwbIUwbNTJGGhIVfuUeD6WvQOfkCFZEM1lSrbGmqty3 srniirULjptPE5w9af9k7iUaUU7aqJHjo8PRPoKBZ527F25NMJpvHnTeblRYUv3pvy9TJoqyPU89 FM+t4ReWVDP7MrDxYqPDZ06OsqEHksUQH9iEKbRSU7WfytqT47wXzP6ZfZGfexAbUqGcW0JcOIBH nt+5+4juSt4LrvmYWRgl73xx1ZnjNvIR1npAd4kv4cJIgrsBrIXMIdO0wTxA45haY823hf6Z204D mC4yrl+mVFCbAGAwSV0jFYewnVfNQLWcqnJfGk++4aKRkQ1FMwBsCpAU69CXM3LMxEipeOrwcADS IFn/1SN59DXcmmCc12AYqI14x94fScJCV1JDtcXsGz83Q+owUiH6UVVdY9UUxkAkZLlR3UD0cDNk 5K9GXpcP82PNytSVOy3Ba0H6MADcmjkrbIRJhoxOkts3ra3+5IdX3ys8/fWrY0ak2L0bM1Bx5mJj 0YX958pu2McoxCiPTZMDoNAkNlI8cIsl3UCz0eDwsoPiTrpdV99AQpy86sCh2uLYKMnNJn1nhqd0 3V2qvm7zf5dnQmUMEkv6SWIEqBaLhCKhf6/GRss3noqUiqt0+rRRI6coG4OF97L4gx6ySX+xukvG qDEBfqUArFpOG3TKLvYwoVWtExZWaK9oBBRCUalmenw97cA+/yGhKVU6fan6OsuzcTsPZYnJ8fdU j471mTR5skI6gWedwYfBQDAASFDZbDQ8vvIAk+U/tzBUHhn67ONK7nrEYhp2tWUpwKQPs5frk3+M qurah9tJ490+AC1IIvj83yUsNiKsWBJnE0I5xOavTz71+rkdn2XOT51PW85cPFtSWXGy6AxRl00r MOM8h3Q1QMHURZqGW8TxtH1ynDdViYhcAXC9R9mfjJYq7t3OXojZ/3B9AdgxSRubnhJFde/hYaYj RcZIqTj3bCWsCkeFLCAjSUgdwASqiqNjYZwLrhtNa1AigEipeHp8PdO7ABCLhN5CH4GtaN8Ztp8y 5J0vXr90nM32Up0mfnVJ9sNjF45r/6pTbWbHCT0jGwBM8tm6ZrJ1221Qiw3aYG5Bm1onXJdTteGi 0bxn/6zMKeuXKRXS1jY7C7gWtB0/cYG5Oaiqrm36vgUdw3H6JQp8EzJnKoHon0zX7xGYgSCeewYo 3JRgqIusyxSZQzQbDf5jts7KnLInK94DnvRFp14ArqiF5cpsugA6w+avT/51WyWXlp6ZIZ1zf0ic Iuzzf5doGozrNpXAykCPPRTnhBqJYN55URklSzxebSR3GQareDO0MyuBAQpq6aZecBtidg6WbAEw Oc4bHYcvUHv6UJE4TNK+1pMWZ+rk4azsxFFcAnblmTtIl6kBmNAKoMkouFpVAatMsrHq0v/po9l+ GxwL+AEOG2UkCVOjW8kjAIBYJBQJE7l7er18lHt32Qgh9+CXX4lDpwGKBSqtf8yabwDo3/qlr0DH 2KXW6PldkU4ZHaKQtnb23M5An6oHPEt1Xutyqj5Yu8snQvLPlTN+NdOBJMAG1AjDEgncb8U9YQHB Q29dbxu6eIJXanL46CR5cty9QDRPNgMIbkows1dtUF8oKMh+pBvPJYI5vHESABurMVr9bWIa54fK P1dB4hiuXxkditV1npkhHR3rs+DBUR9tLeTWexgDEUkUllST3pOSb9xDUcrLOS25OZi3G90lzebn h1QA7LnEPixjlwKU6erZGlJX1X4uervyb9GmACDXGWIjKqpzK+qE6SLjb2aFic1qvadMGR0Sv7rk 8itxYf5JVGg5Xe77aW4usYsN2TCw7WmjRrIGMwCta2LZPss3Vn+wdteszCnqCwUX5OOZORu9ujI6 BIC+1mfMiEYnb4yRd53R+80vVB+s3ZWklOxc76xPxyFYIbOgtCksyOd8aT1XfvDMDGm87J6fJ0f9 PHECTzbuDzclmIeef/7Qpdb6Qw93o7SQe6J46tJj7C6Lu7mWME7QbDTs2HOefLS43+wl93nTZdSn /75MGh2xSLhjz3nmuAyAij3yYX4532n/cUBnU/C0SQVQ/NS/KS+yHqhrMBHzdQmSrwKg1BaA78/V wFFjNDd/ZRX5CymwsBck9QHciWOcgYT6xqYaoSjc2FSTX+H18T4NOubi3p4c+vIcX3aeXi8ftUmO cbH9lIGVZIh7Tj476+cP/s4nQpI2OZlKTRu/yEubnLw3KxGAR+JHq999curwcHHwjfnLtzC+yTta UPjlE53FN/YJsTqjd9jrP5r37L+S98Ltcow9CkuqL5b5mgyX/lUcoCk4XVxq8AoWs58kH9m4LdyU YD77+u2/bqt0YmPsBFd1dfGPHqac+0fLojJ/Oa7Lp5M4BgCZXdLGzmhg9Sc/2NeHNn99Mr+ghnWa ZWXKAdhQFAU6fbm8sm5pFlicK7vBDIm7VBrdFrqRdexL3A7BENyuibnWWAMg7PUfAWx7JGB+qpK2 L994asNFY/bDY6coGwF01p1sMEnFf/yabpv37P/yvczj1UaKmcx79q9+98mX5/jWGj2lY9YbLzzj DQ8PeHq9XLbtkYD5qYGlOi/lo1u2vj1jdqq/wE481wZzmU6wfEMh1fmHRUYHCVsA0BGmi4x7suJt z+YOcK2uKXvPxY17K+x/XALfhMyZ83vwtXjcIdyUYFRa3X/9fbv6QgG3WYt8Sly85F+etYtSuiwB lTrKn7JVTI1PBXxWaaT+lqljpaNjfZwUPyhCOrxxUvqEkdxDAWDmwVQwIJ3Ngw/eT7+33oPNaWga jKzPzaa4zTB1rJSFFASuDQyhrr4hKFBCI0/o+ODELgDyqgPVFwq4T+EWz+ljJ5B7m3PxkIsg1gTA dTImMB7tDJqGW3Qm2uuySvUF7unRQwLfBJPhEgVqQYESP0mMWNQmEpo4qyoRD9dypq/tZ7afMmzc f5wsITJGjYkKv/LmFx0CUJYlmy4ysnY4KsJT4JKeEvXyHMtfodboSaT19uTQ3LOV+7K/fX7lPOo9 e+X3n53++tWRI+qLLwaO/eU7NFlHcPYkhT7UE0EG0q9lN+3L/hbArMwpNBjJlDJ+2QghxUY9SzBc cCMb1jhKp0d6oLExUj6y6Ue4KcEwGEyNl8tK/7jtRN7RArripjSUK9VvWnaz3j/B9RabluBlc1ce OOQ3j48D4OLaRwLPuRlSeeAQVpZkiThqhu5LSSPXJoeaqgHIA4fQbDRiCFgqxv72qQzXYTP7wB6M 56iZu6yyAY7kEeyDIlWQTldPfm5EkFx/OZoaZ9Ne7NC5GY4GyplSxpPlSWf/P/jTaepovxkyksoP grMnaQ1lB1EEg5mmUFmCWstgtS626WmmDjSbfWAdA9NYdQmAf2QCrNNfrOx12xR1utz3yPkzTGj5 9uTQjFFjEiJ87MOXUp1mxwn9a0evLRshXDEn0j7N1WRs1DYFMr8y2vja0Wv0OdAHYkoZf/mVOLGo Td/kwW1Qpn3ob+H54MzLr8QpH91CE96IcnZ8ljkvtetqf4+AKRZYjJ6klDzx2NyYUNn46HBef9P3 cHeCYSCm2fLNDnZtvuQ+70n3pU8a2+oi0zDFZZJSMnWs9KmH4m+rkkzGZSSi5HYNdCa67DO0oG3d JyeoWu6Gcn0KOCjaINs3IngmEaX6jZN5o0zKx0VslGR80pi4qGhx8A3vtjjuQ1YBOYMnYHa0spg5 D9nyrsFkoBv1epPW0P5ouU5bfs3SeRUT2s4KNmZf3IfIQZJ8XGhPph0h+iHuoZU9pKWA6AcAVdet JBRt/yEQTpf7Ajhy/gxRCIC0USNTYpqs6kvL2ZrQap/dcgISu+hrfSqbK6yT0No/B7pSoR7lwgrt giezaTvrIFcEo6iw4fmV895fGur6i/YUuGYc7IqEaG/pzImzkqN7wQmQhwMMGILh4nS55sj5M1s+ 380E/C46a1F55qNlUYt/2ekwZhuQWYANqTCPmTtP+PQjWtAGgKWbuA+x1JNN0syy0TqvuntkRm1C f9t6mX2kczOkbzz36zZheEKEj/3+d4elvPl0uY5IyMbwmEDM8XNxhX9kAuk6xSLLL1ckNAGgMIgr 8oc1RTYxQpg6NkQmNd4WwYBjgmB/A5zC/tmLkvuX/69NQDkrc8pvZoX1WeziBPa+TQCmJXhNmjF7 6vDw+FgFTza9hwFJMAynyzWf5ubmHczj6vDJKMwh2bSgLTVz22PT5K88fa+Tw5Ji4+Otp7ji/CX3 eS+Y/TOqIgwg5TwLIGDVVwPIL6jhWizD8ejiTsEt6pCPDgD24bjIuHRif/20kNrtkpSSrBefXThu 5GAnEhdhGbIAgCa8XeGMyIQ1X8d9AnFJpFRMMRBNhGNlfMpxLRshfHqSeVhkNABuONI9EMHUGb2/ K9IdKTJu/CKPvkWzMqe89fCEkSPq3fA3Qt86srtlobMiGGnT055KT+cLNj2OgU0wVljcujbuP66+ UGBfFOE2NSVnfhUT7EUm/zYg12RmbgZrsPK7x+OZlsX9wfSMqqvNjEgcKlGIHsprW6lsExslAcCs +wlUTQmTCDUNxptN+qEiMddzxaa+Ao7xGlcA1OUJHz56hbq9fSIkRz/+09iYsDv/HAYpLMRTrzcB 0NWpxcE3zpaLPD1KjxQZS9XXWV8MgXzzAKjqb8VGSf5xQAdOTYVxEnO7oahIJDQ1GQUUGBEo9GFp MZoxk39ae7zamHcwz8bKiOqadMHhhv2EhBa0tRhvlFXpy/S+R789Q58MMQ2ZdfIFmx7B4CCYdhhM jZeqb5TrtHnni9lXn4ou1Bv2+b9Lvj9XwyUYMo/5/lwNu6KZluD16C+m2lv99yyoqNONsY9kuUHy TwAkVwTA0s3ckga1DgOIkiWGBKi548LIqgRA994jt5sLnBI9/VbZJ0ntf12+TVae3fR9S9rk5D8/ MZ+nmW7AYGqEtW5E5SKuFRjBpuJFvYWyRMsUTSoOHWwSdtYZQTb+pI+h/JsgCFF+0ZXNFZZ5ml/k wRoTs59eN/QGfQm6LLtY5lupvkC9oPSxpE1P+7m4grdK6zYGG8HYwbz9VPHG/cdZExoAnwhJ86FH iFdefa+QNiYpJetWjOyDSOWqru7zf5esylbR79x1vzUAuSeKV6wr5rb/wy67RW+kf3/MRIFctSlp klzRul7V1T33Zt7uI7pZmVO2/f4xPj/ec7BEPzm5hyvVF6jF3CZBylx5WBe7wDeBrrTIfYAgEpq6 /HaRbwXLRNHGuRlSuh5yvQjaL/CA52dff889eUqST7ovPXPmXJ5pXMegJ5h2qLS61d8cIuMvpjNP Ukpeetilhe/O0Ww0fLS1kCjNFcsyGxSWVGe9f8LG9obEPVTAJDM09uhLD0e5gzkmETkjVBc7LMhw GsDqd598ec7sLvfncec4Xa7xMNZs+uESAFbXpIeYk4UrsmV7MMsl+hrQRtIbdO+AfQMPeJrQeqmk 5lyR6lzZDfb7em5hKM80LuLuIRhz9v7dX35zePcRHUvd9JmVJHUS04o5N0O66oUJrq/79j1XRC1c m4DnFoamJodPnTxcLBLmn6uwCR2yMuWpo/xZI7UHPAtKVEw1CUDTcIuybaTs4Rp6AiCjl7LKhtgo yehYS5cX84xxMeYjcqX1ZW6G9MM30lxpLidv7OdXzuuh6Z88bg8GU2NO7uHNpzTcBACLQm5L+MxA ZMP9irI0Wr94CLmOFrRlf32KGXYAmJshffQXU+ekT+Xj7M4w+AnGYGr84/tr6OrD9SvoHkTuieI5 fyym6/ect0a6WHQhSzRmdEY8QZ6b53bNoV+1/YUht+yROjp6x57zzOuTpd0dNowx6TXdZXb09lkU h88FwJw9xSJhZ+Fgs9Hw2l/+Q2N7sjLlK56e0OVqQs7TszKn7M16hr9g7F+otLrsk/m5ZytZKw04 wQ3Xu9pFbP765L+KA7jsBc4lUTfKk30DVgRlvzuScz47fRLPNDYY3ARjXpNz4JXffwZgbob0d4/H 97EcstlomPjUHmqOctEVDcBVXd07678jSzSbHxuttuRSY/+sw0evnCu7wY1d2KJvEwOxhPLEMZOc dsuYVdp6u3HrrL3VkwRJVEa2WXSoX9zhGsEYd26G1GE7HxctaHsp698fbr+WpJQUZv/d+c48+hJn Lp7d8s0OrqkrOl7iuM4QdUbvPXu+A8D1Pr+tC7L+wlVd3bHTXpQaATArc8ricWF89oxh8BGM+XS5 jiw0yBOpX66GKLaY88diAFmZLg0I4E5CIyMve69lqkw4JBibV9+x5zx38iYdMEqWSAZc7FWoKRNW cd9QbTHJ0OAoZOHKX+iJjrye2j9/in4UwfjDUzNGxBq474WVo1xMGG7++uSzGyoVwdj0Nt/E7HYw mBoPFh421UF1U5B7tpJ5ghHou0dOEwC6TILRt/dfxQH0/SGNh+kCeQAAIABJREFU1GPT5Gx+q3tK m6mpgUZGAXhmhnR80pifxd97l2trBg/BGEyNHx08xpX3P/VQfGyk+A4NuLoBlghKUkr2ru+6SYxb vXceaRHBsBSZc7ASJXm0kG0a8zwGYFNxpRKLwDeB281sA67PGFWzAFBXcUKET8dAB7AqYUmCt2JJ 3EtPKbmfBgtlXHlHzHLt//b8jecYt4e5VHdCX+tTUlmx+ZSGlJ5cL0FXXDCYKJKbRmM+T+7JNFTg 5MoekpSSPzw1o6tUwaDFICAY85mLheSGCWDJfd5T56RPS/Lqry8fK00/tzD01eX3d2ldQy3LALIy HYQsXLBkkSpvYTd6E5j1JzcFQTQMF64rSSgA4FyRivSbFOvYdLj+6XdzHTV9mbefKl713kcAXno4 ittbUVhSfd+zxwC40q7NPtu2C1/chb/VgQyzwWS4VH3DJrRlmlyy3nBSwmk2GvZ828qdKW5jL+uG OmjWnsPMae7CjoABTDAqre69z94n1T115fbjgGGuBcXuI7oVS+LeeXmKkyWb6oQkarG/tOfCxqkT 3bqIo5QdlWEo4TBzclSXT7+qqwPAfiQ2in0AZAFAIL+AWZlT9mYt6+R45uUbvyIVHpdNqbCUpJTk Z3c9X47imLTpaXxf2UCGxXiNK1Bjg+mce0Bwwxpya4a1pvibx8e5VRMaG9J6VVeXX+H16WeWFtas TPkDE2ePGaG8Gy6SBiLBmM9cLHzzw3/SX+uZGdLJU8b0Y8jCvU5hXkz/ekXm5HyajYas9adI8d7Z 6HLiFeZbQ2M8ls6cSFNvKeHgClXYGLHkvDWyy04HVrfkxig0noCNAOAasjHTzPhHD09L8Pr3Bx84 OThN+qHy2DMzpKuWj/MT+r64JnfdppJ3XlQ694iDVQH37IbKS1/8WR4idb4zj4EAS9GOktu0iRud dPbdtvGyo419JpfuBlrQdqmkhubhsh/v808sH9wBzcAimA7U8tGyfg5Zjp+48Letl5nT19wMKXGM 84oCq9B0Vt9m1X6KzGSJyUtnThwfHc5ZT9u91ygxSNkG++LN5q9PMmrJyuxC10mU9vHWU6zNn4YR 0FTaLq8NKdmVNjm58wiGwWKvsC/7WypTSaWBjzy/k9uB7QTNRkPYL/a49kI8BhDMKm39/1UeKym4 kFcdaFN0cRLW1Bm9D32r+8unB7j89NGyKLdV1RSWVJfpfVlA88wM6YtPvjBYKzQDhWDM2ft3/+XT AzSubvG4MBoDw4LQvoQNAXD7W/zHbO1yAMa853ccutRq37V8VVf3108LKV6ZlTll6cyJrs3js2Qb aMpI3tECIpv7RoeTaIa0YM6n5uSeKOZ2AWRlyqNkibdrxUaDPm9LFHm6XLPktT+V1uLyl1MByNO2 u9K4DCA586vSWhgOfTgof5M8YDUVpJoNkQ3rT+GqhhnqjN76Jo8dJ/TVl37gSjjJ7SJjgrLvF4ou QSVYbkvnK7+YNsjicncnGIOp8YMt66nf6Z0Xla70+/YSbJSPSUrJllWTuJfbqz/5YVW2ynmxmuoN n/55NFfsyeIMAM+vnHcnXzKDqfHeJ19h2szvP5rkPJbasef8sxsq6de4YkncnPtDutHPTT3EFPX/ 8Nnq2w35lZm/JX9r6pG7deG/unwKkbR2z22/Fo8BCpVWd/zMsc2nNNy6C6XR7HXTHvA8cqJw54Vg 7iAPF63w+gWsxbmosIFmI40ZkdLfJ9UzcF+C4Srw7VfzPgZXjd9Zrml51i5V/S3nF+B+076aluD1 1QfzKTJg5pXWaSjKOzzP7P07H30xu0tdJ0VL7LPtnhtb7oliJt6kkKu752/2SFz0zotK6qZrPvRI l09YnrVr0/ctfBnmrkR7fpVtem5h6G8eH9fZ+rArX0/5KFi/7W5rgMauNZOUksEh+XJPgjG/+8k7 5Ny1YkncUw/F9xe1kPsQXZ47X7UpQeS8TE370Ihy5k42K3PK//52YU8slGavlzeb9+xfsSSOKucO d+JGS7f7Y6Oyk+pqM5Nb95RDxuxVG2i96FJDSpj3/I7dR3RV337AE8xdDPP2U8UPP/U/7L7zXyiZ BdBXlyofTlo3+xHUvPBuTusHa3cNAgcadyMY85qcA3/6226Hurw+Bsv8UNTiPDtHS55zgiksqR49 L4dq+6RH2fbp/3fnUQsAwDx71T/2ZX/76Z9HO/yBsb41lg1znbYpk8a1LrfGKz02fdLr5U3mPfuf Wxi6ftU8V/anGgyfIuNBNJO57bR5z366z4bPdnalUmf0/p/1B+i34MpPu79AaQY6z1mZUwbohCT3 IRjzu5+8Q7UW5wFvH4CbEHPRHDM586uiwgab4oo9qB+XbvesSXD2/p2/XnuAO4OAmIaczagx7LYs 0XJPFOd8p2XDPX0iJEsX0VjZnvyWny7XjP9oHwVe772c7spTqI7l+eDM1jVLevBMeAxocI08aAtr 4ne4klDTMBsk0Y3xGX0G+iWu21QyN0P63huPKqQT+/uMbgPuQDDmnfm7H3/tAID+jVu5khH6wjm3 +yUFjI03fpeK9M1fn+TOA0+bnKyQBZCvV4iv5510K1IBZsWSOCadeWaGlM6NHGicTyGjnxyNvuBO kI2Uins2SGcNQhSq0rm5khnjlo58IiSGQ7z3JQ9bGEyN+woqyFuP2s+eWxgqjwydOTnKYVckk6cw 4z7qonTeeNn3+Nd+PbXRcmxqB0B+uJ8J5szFsxu/3PTh9muuGKv0HrgdYnT57zwQ4Vq8sPF/bJKY K/0IJDrhWnsBkAcOKfMaMVRbHDlmYidWks5ABENdWIUl1R9vPcWGuzjRl7DpkzaKzo7KmzuFSqvT 1akPX6nhdp2S+trFUJVlLFcsifvHAR2vg+HhAtp9pLjCZCcxTdb7J9jFn7vVabh+HJTcc3+dZr8R jEqr+2L3P5gNlyujQXoDXMuWLv1m2B/40KVWRTCyXnw2RhpCKaNS3XHlo1uW3OdNa3rOW90cWswc w5irMc0//+09Z4eKxK1BiWmjRsaKzG3C8BBfTxsj/Xc/+Z9X3yvkOpUxUadDgrER+ZPAqEevjCwi 7WMH9jIDNHCmebo4PoQKSOs2lbDUnzDxHz1XvuJxN6DD6PTnFoYumP2zziwtyNnljb8ecFGh3Mcg Ivx46ymy033p4aiFv3jObWmmfwjmzMWz9y//X/R3TqywpPrTf1+mlct5BpYbEJB5sH1sMXvVhqHa 4t89Hk90RQrHB6d0x8OGvkMAPv335ZtNelX9LQBkgc41l1QEA4AsMRlAekoUZZxIHwCAJGl0Mp/+ eTSZpRM+3nqK3Cqpfrh05sRZydH2XsiuwQxApa3XGjoI2ZiJMoAkpYRcy8j8w3X9JjE6+zy3rp3h J/SlChnfo8yjG6CZafRLIaOKBbN/5tAjgAwCqK7ZL4MKuwRX5LBuxciMCc+6oe64rwnGYGp89fM9 eQfzyK6xv7wc2FAv520krIGKPCKdtwwaTI1+Kb/Z8VlmanQra//oqeIhee/rdPVkaQzgXJEKABkb 05byWkvQ0+UMSi7ItpKB6Cr+nuqIhHtpkpj9UxSygLaKH8q8RqgvFDh8OSK/yXHeQ0Xi7jmr22QD uCq55Vm7yrxG8PkxHt0G1Wk27j9OU/JY45l9THNVV/fMhlrqoe/3vlZ7tKBt5/5GssmZmyH9IOsN d7vq6kuCMWfv3/3rtQcAfP/RpOQ4eX+ZN3AnKnY2HN7GxSHrxWdd6cr1nfZbWJ3nbRJQNOGxV234 WtDWYrwBQN9kBMCoqK6+IShQcrHM92TRGRYPMcRGSWjjzZCRRBhOEBPsxWiMuxEAd067c+t156Cw knWv2f+N/KZ91clQAB48bg8GU+PlstI/bjtBFMJ8yrn55Ba07c1vfPy1A8511v0IEtWtylYpgrFl 1aTkuEfdJ5TpI4LZfqpw1XsfldbiT7+b+9sHzP1o90KDFCkJ69ChiJoC/3FANy3Ba9KM2Rmjxrje mLv9VOGTf/hIEQw2Z4yuxPPPN5J3GV3ak3lfH89vdgUtaPOGR7PRYLPdW+jTvo/xBt3QNxnFIiGA OxzpxvSb3Dlm5Dpl3/lDPcr8zDEePQsa/s26nO1bdZqNhr//x5Nlod2t/g/ORD6SebgJzfQFwZBO 23UZXS+hsKT6iaxjTtQqVGih0lm3fRqYWYt9vzLFNPkFNR9uvwZrHonM+NyQbHoDpFIuKdWorjZr Gm59f67GprDk3LeGlKpJSklhNt+gzKNXQHqaV37/GQCHphj/2q9ngrMudW99jGaj4Ver1RSNffrn 0U/+8j4grX9PqXcJRqXVPfjC66W1cO662AdgTa4OvxNcarlzTzCKYwDkvDXSobyDSjv5BTXMGB9W BbI8MhRAmGQIAPkwPwBBgZL+/ei6DTYbCgDRCbeXjIHeeGpy+IMP3h8kbOnsaGS0A4B3iOHR+7BY YzicqcHaGgF0NnSjH8GK/3MzpF99MF+AKf0YyvQiwazJ2fvK7z9z0YC998BadR0qVNijPhGSz/7S A3aTBJVWl7Do9c74jAsW1nDJxgY0jZh8+MtrWx+bJldVXUtNDqdH5cP8+nfCEglOVVebAdAboe1O ugzmZkipyY2auZ2PXeB2ZPDNYzz6DHSlSMVaexYp0wmUj26hL3n/Gr3bowVtr675lvpj160YmTFh NqDolzPpFYJhgcvWt2fMS3UwrrEvQSYu77yotJHacGXhq9998uU5M3qW56lfjhzrXLcrpsU6KFBC TWKahlsAVFXXaNV23hjGeIjauug2gRq66HaYREgREgO9CueuMUwiVFVdo3CKToA9erSkPcigqpLN WXFbyOi1nMwldA4avUMK1lmZU/ZmPeMOaWUedxUYzbzzotJGpNlsNPzhi+YP1u6C1WrTrTJmLOh/ bmHoX1c91C+hTM8TDAUuXY4N7huQB6V9GMEyZs+vnPfOYw/2nkzpdLnm9S07KStKnQUsaXarrW2I RzdbtMnmmYhB02AkIwCmzSRQNZJ715Uj01PSJicDONgkFJw9SdtNKeMTVSepiXmotpikplwWmTp5 uFgk7JG/OL075tnsnv2XPO4mmNfkHKDCjL3nCCvuOny0f7ErX7/gyWy6/emfRz/5y0f6OJTpSYI5 c/HsH7edUF8oePOl/g9c6K9eWtth6D0JGGl72uTkHvLJ7xrMia+0FiIh3nhU9syiCUM8hpjNt1pv 3RQMFfTBORBYKzOs3cwAhKLwYGGHDBVLWHnYXfLQQ/bb7Z97W2DeOczbLUkpSZuetmJO5MBy9+Mx WEE5CZIP2xjyesBzZ349E/93aUjYl+BKeax2mRP6LJTpGYJhw8GorNTvw3xI6YKOZXZmfz0twau/ TEkbf9L/edu3a9/5AtaA5mr90H25l0ND/EbH+pDYPkgi6MtvJ1EFlxW45OE6W3RGRc5BKUEa2Ezt ZCRNXfjQlDD/JLc1wOBxF8MyUgSAzZTMOqP3r1dm20uD3QFXdXXPvZlH55bzVt/J/nuAYKjiQu2/ 7jAqjtJfsAoe0XFu2Iolcf//y3/q31Q+N6CJDBxSrb/VqOogg5+W4CUPHJKaHM78XXrP8oBbYHcS l3DhCnPY8xasfWV1DSZy+eS2NpDG7YlfLIiPVfC8wsPNQT/hP/1tNwmomcygBW3v55iYTXhnOu5+ AS2DT71+ri855k4JhsaQAG5Rz4dViMeNUtlAlLTJyW89PMGthl3faGnWNt6Uijzr9SZdnbqsyfN4 3jabggrXXgxAbJQkTCIEkDrKPyjQUmIJkgi6Xf/wgGepzqu5oZwOIhL6w2mKzCEcUs5VXR3X2Ca/ oIbCFFgLQh2dm7s/p4AHj34B62aaluDF5ZLCkur7nj1Gv9x+V2jY4IWN1z5Yu6vPOOZOCMacvX83 DSBxE1HrVV2dPG17klLChPSkbi2txWd/ccnrxW1gBmAwGer1Jq3B/OPlH7785jBpEuGoXE+NW2TZ QpAHDlHV35IHDgFA3jC0hbsDgKEi8ehYH+ZnA4As9Lts+nJIPEQzZTpB/mnt5lOavKMF4HAJAEUw ZInJ8fdUT0x7eHx0eKBYwAcrPAY4zNtPFdvr3pqNhsdXHiAPQ7YcuQPIvozE4B8ti3ryl6/06qrY bYIx//eaP63bVOJ8SHBfglX1WexC8+dlicnbfv/Y4FjIDKZGinW4G0sqK459nwsrkZTXtpJchjq+ CEO1xez2zZAO2k82KuOlh6O4k9CemSF13aeSyzdqnfavnxYyMzEAzy0MXbLkDwkRPoPjr8CDhw1U Wt1//X37vuxvuYKYOqP3P7fmvfpeITMC7+/TbMeufD3NeMzKlP/+6Vd7j2O6QzAGU+Oil/6w+4ju +ZXz3l8a6lwl1zewYRemcXl+5bz1Sx8ZOIHLnYP9ITw7bnTyCZhnr/pH3tGCrEz5zMlRQRJBSakm /3wjjeoBMC3Bi2z2u4z0ud8EchjbeSE472AeOYqnTU/r1Y5wHjz6FZZQhhwn2Y+FSsJcf0I3AfMu e+dFZe9xzG0TjMHUeO+TrxQVNnz5XiZr/+1fXNXVxT96mM1tZAlQfiaVi2CaUAAk/Z04IREAGb1Q Ao095MpsYxuw/j0KlWSJblcM48Gjp7B845cfrN3F1d5RU6sbckyd0Tvjqa1FhQ2HN07qpXrM7RKM +aHnf7f7iM592IXlOumUeMeqboM1xjD3i5mTowAo4yLIz4ba8Ch79s7LU26rq42Cm9wTxTv2/sg6 x2ZlTuGZhsfgA3PJYpkx8ml1ExUHFy1oS83cVlTYcG7XnOS4x3v8+LdHMP+95vV1m0rcx0OURXkr lsS993I6sYtPhES7ZzWfiuk2dubv/Hifhk3IYD431ObIApq5GdIF6cO68U2g7NmOvT8yV+l/rpyR +f/aO/e4qMu0/39mOAYqDTCcBFEoJJQRdT2kJCJsagZbSi2WJrit5alc2+zwlNtS++Sm69p6aGv7 qW2abJmhrqceETE0D6kcxAMFiAMjMsAIMsQAw/z+uJi7rzPDAMNhBrzff/jCYeY79wwz93Vfp881 I/5eimRy+jnni8t/NetlYRUZFbjSTmXt1d1FXYN60JgdtNRutzGdMDClyq8ConbbzhvUCJ177FcU dTm2fV5u9sW4t/JjQ+33bvqQb1XdglDnJn6a9OV5w0mbko2aBtCVEUw01S0lVc4cmoUzJvOoJqd/ oNbUes1aVa9QpW+NjJ44ohG6J1MKDqUer70wz6YS/tA7WAB+ynypezvQO25gCmWJawsrUfLfeWY0 1XuTDz79nmQQs9PiAExakgVAfXQzty7dzoUrF8dvzdYeOAxgRXJI3CNe9IU5efoyTTVGe6NczJNx Op/KCigEt/CZqFWPx/IIJ6cfQFNuSQezrkHt8/iB5EmO1p2MZRLKZAPo3vBPRw3MstUvbd59a89n ibbQTQmA/lT1CtWu9Yka9dUlH5XEhtp/8bf/5ZGxnoOSNBkXS6jBharOQkN8rxbczM6TU4kzOlN1 ZgyNE6US55mJU6NHByZOGMctDacv01qlSTaGwvi2k2UQQuVR3buRdsjAyCuUQ6Yum5k49cDq4d3y rF1n+eq0zbtvrUgOiQhySXo7+94rR7Ymak3tps83ksMRLpNMCWntzay505B+4idSQTYz9rhdSJN0 +95rnxxRQt+e+e78J8cOk/I/MacPol2+9cutX2RuWRyYOGf8uMSvhO16NgXFypYmeG9K+Xu3fNfs 3nnnnXbv9M9dG45+fytj868Gubq0e+deION0/rL3rwB4cU7Ako9KYmdN3LniOb719BqO9k6RY6Y8 N2OC70PSOzcL91xs2vivnPwfb96uaYwcP+R3T4347czAwQN1Jy7d/iKt5N8nlLsPXnYV1XlK7+vg 58cOIm+PgdMnD1sw0yfMq8Wh+ee0LMXmj7+5eOVEqRZDJPe7udpWCJvDMYv4sdFhJ6+Xrdt4+gEf 7ZLE8I3/yim8oUx87CFrL8wQb4+BocEPvvb3M/c5/Rg5ZjIgbv8xZumIB6MVhT1DPZVdfLJugXW9 zEyc6lCRX1zZ/P1nvGbMmhQqT+7ee3znUTnpzZD8X0iwj9tA53PZ15n8vtCn6Wz0jGZaC+ub353/ 5NhhPj3zgjic7ketqXV762vtgcO1F+ZReJ+S/9ZelwmeWLbn6NXm/e+NmDZxeRcv1b6BWbv/4Dsf 7iv/7ywbqXxgBQ/pWyPj3so/8a93+EZjC6g1tdeKCj//7x5mTkjWjNpomCY/M0KTInw7W3uWW6Bg yR46YfTaRB8Op+uQOOaUEMdxo3yT3s62+jj5tqAGTCrp8nSO7Mql2jUwWtfYpQufibIR9wX6IZUz E6eWXs6Z/2z8q3GPWXtFnLsgS/PWV6dJ5Sx+mjTAXfz7eeNJrflc9vUPd1wrrmwmS7MkZmDCrNDR IwIc7Ozbv7Qe5tAAWPgMV6Dh9BmoP2bNShmlMOWZCTaYiYFerKzrCf92cjBr9x8+fubaofdHOto7 Wvwc3cvz6/Oa7jQ8Ps6x+Gb9jv95qetRQk734mjv5Cv1fTZq3HMzJkyaOvq2nfOJs0Xrvrqx6evi 7AvFdmLH118Yu+S3Yb+dGYiG+n/8R77zROX5H368objt6+1oZyd2cnRo68q5BYojxy8fOSX/996r OfImVT3qFaqzp66OflgWNthWDkAcjhn8JAOq7mvesCt3y+LAtIxynah5+uRh1l6UCUIHO/u71v11 a9Eg15LIMVMsvo55D0YrCnvGpirqSJDfxU9Sr1D9cOBDHhzrO2gvXMl966vTTCDg+ceHzX8iNCdf /vfPrzKH5unR9uPHBkweOzj8wV+SNLkFisMnSlg/JoD4aVKai1OuatiwrWBm4tSDqxdb5VVxOBYg S3wRAI1wbbn8grWXYwLSdqJw0fmvX7dYz8lcXGLt/iMAZs16BLCJzkoAO/cWAKhXqOxmzeDWpU9h N+ah0QdXj8bqRbvP5m89fPIPa7/bd+z6ryf5b/5TlNtA56IbNWRFth+4AFwggYAl82R7DlxKejsb 1Mi5OMKgvaYRuvTzSuu9KA7HElavXPJU0l9oSFLG6XwbTPWTLPrcx2P2HUvdumvbmBQLDYwZD0Yr CnsmXCbJSX3a0kV2PyvXZpBCCVdK7uvUN9TN/zB1z2f/ByBcJnk2tlVvZu22H24oqrZl1Aj9lZSX JgrtColvZhfVs6kzusv/scqr4HAswzX2RaYqayMjtYyhkt1gT+Sm/tOyK7RpYC5cuTh2zhoSwO/C CruZUYlfUixFfdTCF8yxMbTk0FDobNEzD7g1li9+8VFPd5fVG89u2FbAKm1ITkZ+4xYrVrabNeP9 Kd5LHo3kGX5On4MUlwHYjrqjSahkWX30VSDYgoe3aWAoSmhT7gsAcdjHAD746wJePNZv0Ol0IpEI 0G46cuw/B05lHcmGnePSBG8q5VyRHNJ0p0bYARPsf39SdDQPkHL6OvavbtMeOGyzxcpE2rma2QtS LRbBNJ2DkVcoCyux/z3bigxmnG6d+ztt5BjrroTTjYhEpCJjt2z6r5dN/zWgXbv/SMbFkm0f5QD4 5Igy2BNRU0Y9N94nccaT1l0qh9ONpD419qkDh4srm629EHPEhtuHyyS79x5/7fnuMzDHvvu0XqGy tdSTvKwOwMzEqWOH8d66fozdq3GPvRoHtab2UM71CUN9eSslp18yYagvgCkhttIBYpIBzq4xY6Wn sm9a9nDTBmZPRhlVONggw+9TcNmxewFXp0G8joPTjwnwcrf2EjrK0avNQKEFaRgTXYpqTW1xZXOw Z3esq1uZPWskgGaPMGsvhMPhcLqHgCG23iMcEeRSr1BduFJrwWNNGJhrRYV5uapnYwO6vLBuhsTQ blw4ae2FcDgcTldRa9QAfCS2rkUyaEgogLzLhy14rInX9n8nDwKYMSWwi8vqCcJlEppqxeFwOH2a QznXAQQMHmDthbTDuKHNAM7lWJKGMWFgTmXfdPGTDB4ytIvL6glixkrrFaoLVy5aeyEcDofTJRa8 uQXAuIih1l5IO7gNdAYgr26x4LHGBkZ79GpzsCc8nG1FHkZIyvLxAN766rS1F8LhcDiWs3b/wXqF as1KmY2MQTEDrdCycmpDAyOvqAYQM9ZGC0MHOLvGT5MeSj0OaK29Fg6Hw7GQVa99Fi6TLJnXZ+ok 83JVFuy6pvNLPhLnLq+np3h53nAAy7d+ae2FcDgcjiXsPpsLYMOKEbbvvhDhMgu7VgwNjLubEwCx t4Xamb1A9MQR4TLJpnVp1l4Ih8PhdBq1pnbBm1uWJnjbWie7GQorLXygoYFxdXIF8ICPposL6lE2 rBgBYO3+g9ZeCIfD4XQOr1mrYkPtN6Y8Ye2FdAKL2yINDQyVZts40RNHxE+TrnrtM7XGkt4fDofD sQrLt+4K9sTmP0VZeyGdg4ZiANc7+0DTHoymqutL6lk2/ynKxU/y1F938mw/h8PpE+w+m7tpXdrn KZGDpR7WXkvnCJdJXPwkwNDOPtC0ByNvcuqWZfUcg6UeWxYHHko9TmM3ORwOx5Y5X1xOqRebmrDV cWJD7bvBgyEUV7/v6nJ6nufmTKBAGe+75HA4toxaU5v8xjvBnnh9+SPWXosl6JP83SF2CeDaz33D xqa8NNHFT/LI8o/lFXwwO4fDsU20T/11Z2ElNqwY0eeCY0S9QlVc2dwNfTCuTq7Bnii9nNNNC+tZ ZCF++98bUa9QvfDP3TwZw+FwbJDlW788lHp8y+LAPlSXLKSqwRHAME97C+akmPBghnmaHhJjm0ye GLb93YhDqccfS/nE2mvhcDicu1i+ddfWLzK3vxuROGe8tddiIWU3rlv8WGMDYwegsBKN0Fm+ol7E EaLn5kxYkRxyKPX48q27rL0cDofDaeXClYub1qVtWRz43JwJjhBZezkWUlTjCmB29GALHmvCg5kU 4VuvUJUqbVctxpiU5eOXJnhvWpdGGgwcDodjXXafzR1g4nSHAAAgAElEQVQ7Z82albK+67sQ1LWy YM7TFjzWhIEJ9A8DsHvv8S4tqncZ4Oz6/pu/jp8mfSrpL6mHv7H2cjgczj3N8q27nkr6y9IE71XP P9x3fRci61TG0gRvC0rIYNLAhAQOBbDzqLyLy+plBji77lg3PVwmmbsylReVcTgcq6DW1MoSX9y0 Lm37uxF9Sw/GJLkFis27b/1+noVOmOkyZRc/icXqZlZkgLPr5ymRLn6SIVOX8eYYDofTy1y4ctFr 1qq8XFX61sjn5kyw9nK6gU+z7ACMCplr2cNNGJjhQcHBnqhXqHILFF1amjWQhfid2hIZP006ds6a 5Vt3cbEyDofTC6g1tWv3Hxw7Z03yJMfstLg+WpFsQF2DeusXmfHTpBYUKBMmDIyr06ApIY4A3ki9 06XVWQlZiF/aptnb343YtC7Na9aq3rcxV3662svPyOFwrMiFKxcfXrDqnQ/3pW+N3JjyRB8VgzHm aF5zvUI19/EYi69gOkQWExcN4FDq8b7oxBDPzZmQvjUy2BNes1b1cmmZ2F6cX3jt54afe/NJORyO NdAu37rrkeUfA9j/3oj+4bgQjdBt/yw9XCZJnBFv8UVMG5hfBUa6+EkAzF+dZfGlrU70xBEHN8YE e+KppL+s3X+w11r9hw8NGRE8/D7n+3rn6TgcjlWQVygfS/lk6xeZyZMcT26f1Z+sC4DUr8/uO6Z8 5alAi+NjaMvABHi5x4baA8jLVf3ncI3FV7c6g6UeBzfGkCamLHHp+eJya6+IY4imyaan23E4JlFr akOfeTvzRM7+90a8/+av+8rw4w6SW6BY8lFJ/DRpwuNLu3Id0wYGsEta0Bp3m7syte8GygAMlnrs WDd9zUpZYSV+Nevl5Vt3cdUym8LJwdZnQ3A4Buw+m+s1a1WwZ2tYrJ9Zl7oG9Rupd+oVqj8t/Z2r 06CuXEqk07UlCaN1jV1ar1ABCJdJclItaeO0KcqUVTv3FqSkyoM98WbS9MQZT1p7RRwOp49x4crF t746fSj1+JqVsiXzZP3MtBCzUq4dSj2+Ijnk76++05X4GNr2YADYbVkcSD/l5apWrs3oytPYAoOl Hquef/jarhgAc1emyhJf5L0yHA6ng6g1tY+lfDR2zhqHivzstLhVzz/cL61LmbLqUOpxAPMfn91F 6wKzHgwKlScfiPoH+++K5JD1r0Z38flshJVrMzZsKwAwM3HqwdWLuv4+cjicfsyFKxfHzlnj4ifp Z6ViBtQ1qH0eP1CvUMVPk+7dtKnrFzRnYAD8Ztmyfcd+kV3JTovrNyXeZcqqv23PJTPzw4EPxw7z sfaKOByOzSGvUM566e28XNX2dyP6R3N+W9Q1qCcnHcjLVbn4Sa5+8W6Al7Tr1zQTIgOA9X9qVQig quVJS7Jo+Ew/YLDUY/2r0fLMhPhp0l/NeplHzDgcjpDzxeX2r24bMnXZME/77LS4/m1dypRVZF0A /L8/Tu8W64J2PRhA+5tlL5MT4+InqVeoViSHrHl1al/XBxUigt1nX59a8lFJvUIVLpP8+ZXpT46L 50EzDuee5XxxefIb7+TlquKnSV+eN7wfx8SIMmVVQNRuAEsTvLedalQf3dxdG2C7BgZqTe3DC1aR ZYufJt13TDkzcer7iQP7TayMaIQu9euzezLK9h1Thssk85+NT5wwrrvMOIfDsX3OF5cfu3Qh68jB o1ebF02XvpIkGyz1sPaiepy0czWzF6S6+ElWJwakpMo/+98lCeNl3XXx9g0MgG/OfTN7QSqA+GlS APuOKV38JKe2RPYzGwOgEbqTpy/vOfjj5t23XPwki6ZLlyXNCJZOtva6OBxODyKvUL7wz92HUo+H yySvPBUYM+WBe8G0QO+7uPhJtiwOXPJRycJnojYutFA42SQdMjAA/rD2bVZ25VCRTzZmx/vTnxjn 1o2rsREaobtacHP+6izmtyUtiHlUFtPFniMOh2NryCuUH/z36KZ1abTJzp41sl8WH5skt0AxaUlW vUKVvjVy/3cVnxxRdmNwjOiogQG0f1j7DtmYpQnem3ffolvlmQn91dTXNaiLbtRs33vtkyNKSs+8 mTQ9LpqbGQ6nP3C+uPztz7/JPJET7IkNK0aEBPv0163MJGXKquFz08m6VNz2/926I99tfGHMQ6O7 91k6bmAAaGWJS+lQz3Dxk1zbFdO//zC5BYqqatWKDflUwPfOyzw9w+H0YYSm5Z4KiDFyCxTzV2cV VmL/eyM83CURT+zftT6xJ8RNOmVgUKg8KZv7OenHrFkpk9+4RbmK/t18RNQ1qM9lX/9wxzUKD0ZN GfXxiwkBXu683ozD6SNozxcrybTEhtq/PG/45Ilh/akgtoNQZIz8tskTw8YlfuUfNurg6sU98Vyd MzAACpUnn1z+eV5ua0XvieMXKG62IjkkZfn4fh++pLhZdp78b1+VFFYi2BNRj0YlPxza7a4lh8Pp LkhArPRyTmElkic5/n7e+KAhbv1+szLJv78+k/R2NkWe3AY6v/lFXea3mbmp3Zx6YXTawABQa2q9 Zq2qV6holawf/l4IlwnJLVBs33uNvfaFz0RtXPg0d2g4HJtBu/ts/oI3t5D2yT3rsjAyTufHLMwC ED9NmrZp9geffv/6+twbxzf1XMDfEgMDQK2pfeaVN6kBU56ZUFBYHvdWPpmcflm+bB6yNFQLMDNx 6scvJvAMDYdjRZjmMYB7c1MyhgQYVySHpJ9XAtiwYkTMwqylCd6bUv7R7mMtxkIDAyMbI5W6v7J6 772TkjGGWjX/9lVJXq5qZuLU6NGBr8ZN5w4Nh9NrqDW1T/11Z+aJHDZn5JWn7q3KY5PUNajn/fHI vmPKpQne77/568lJBworASDYE99/9kGPlsVabmAACOvKSAeTuWAzE6d+stjz3gmXCcktUPxrx9lt pxoBvPNyPDczHE4Po127/8jnO/exGlduWhgZp/MpvERinbkFiogn9gMIl0m+2Ti/p7vIu2hgIBQr oxeQcTqfVfTem64MQVVn9FbYzZqx+CHnVY/H8tAZh9O9rN1/cNVrn9HPpHcyY0ogD4gRlGUJl0kO bozxl3rpoCUDEy6THNs+z9M5sqcX0HUDAwB//fQvKalyykB8stgTwM69BTuPyvNyVSuSQ+4RSZ+2 KFNWpZ/4aU9G2dGrzVR1FjVyxDCp19hhUu7ZcDidRKvWqK8q6ouVFcW3Sj/fua+wEoumSyOCXAIG D7hnj7PGsDjKoulSNscr7VzNvDeOxIbar//T3N5RwOoeAwNB+TKTkGGBPwArkkOSfjP8Hj9WUInz v3acPVHQSCXO/mGj3p3/JLc0HE57aOUV1S/8c3fmiRwAwZ4Y5mkf4C6+lwuO24JOtEs+KgEgrG6g AuUVySHvvfRqr8mRdJuBAaDW1L71j7VUtrtmpWzF8xOfXvYNtSVSzm1pgvc7bz7t4dzYXc/YRyGt s+w8udCtSYqODvVz4To0HA6h1tReKyrc9v3VwtLbZFcALJouTfrNcG5UTFKmrNq5t4CCScJBA43Q bfj09Ovrc5cmeG9K+XtvHme708AAEKZkmPTy9ncjzuXcJPmycJmE2kfv5Wp0BlmawydKTmXfpFuG jJk8ROo2beQYbmw49yZqTe2hnOtbD58UOiuTInxnTAn0kDjdy8F28zDlStzdkljXoP7tB6WHUo+v WSlbNn95L+8q3W5gAGhTD+/73boj9FIBKC8s93BuzDidTzorAHjTkzGN0DU21J/Lvr7/u4qiEhWA 4spm/7BRwf73R40cMWGor7ubk6uTKw+mcfofZFQyL+VnfptZWAnSlt2wYoSHu4Q7K+3CttZwmeTZ 2IByVUP6eeXJ7bMGOLuS5hjNe14wZ1Xv7x49YWAA4MKVi0l//piqBtksa5q28uGOa0evNvPeWjOI YFeqrKhSabbvvVZUojp6tZlujw21DwqUTAgf8+Dwh7mLw+nLaOUV1cqq0m3fX71x4SR9woM9MSXE MWCI94wpgdyudIS6BvU//8+OiuioVGyw1OODT7/feVSek/o0pfRJc2zaxOVWWWFPGRgAak3t6zsP bFqXBsBgCCaloagnMVwm8Q8b1f9GZHYjZcqqgsLyc5dqS8VBALZ+kUm3B3vicsCEWT+fb/IaET06 cMmjkdzkcGwWeYXy5IWsk4oGZlEABHsiZqzUR+I8Y0pgaIgvP2t2kDJl1d+255J6SPw06ezowazp Z1bKtcwTOcmTHKmE7H+WT++FcuS26EEDQ7BpmNA3Y7JfCcdHQh8344WGJhHBDoAOWvovNdnIy+oA ZBfVp59XshYzFz9JbKj9kDGTo0aOmDlqKDc5HKui/ebcvhPHL9BWSDfRhhgRHsDPlBbQCN3ra48z iWHjJpAnlu1hjYlWCYsJ6XEDA0EFM4A1K2Wrnn/Y4A5kjZlq5JbFgRRS43QcJvNcrmo5lX2TPmEA aLLAc+N9Jo+J5G2enB5Gq9ao92ek//tseenlHOGhZ3VigI9EzI1KV6hrUG/ZkUtFYksTvP+W8hsD h6+uQb1649kN2wrCZZLPUyJHhcy1esq2NwwMAGF1WbhMQgkog3uwziASzVydGLBknozHYS2GtNHO 5dykt5RuJJG0mAd8hwcFc+eG03UuXLlYUHL9TN6FT44oAbAqJpZQGTdyEA9LdJG6BvWeA5eWfFRC AbHNf4oyrqara1BPTjpAve3Lkmb0Th9lu/SagQGg/ezrD5LezgbAmjFN3m/56jQ2kpl3aHYd1nZT rmoheQX2K0qARY8OpP8GOGj4TGiOWbTni5U/Xvv+pKIh89tMoY/CLUoPwcTE2hLfojaXlFQ5gFNb bMJxYfSmgQGAb859M++N1grmtkwxxRDTt0YKy5qFWSxOF8ktUGTnyaHP31BhKPttuEwS9WjUEKlb zAO+Ug9/PrXz3oT6HAtKrpMtIf1d9jkhi/JsbICPRGxy5HAjdACUymoABYXllC8EUK5q8ZGI2c/s /vIbt04UNFJ//omCRgBTQhzpVwFDvAH4SMTnclrbxUgLgwj2BAAydfHTpJMifNtaUt9CBLtjp3Pb 1XVk5mdpgvdf/+c9Wzsd9raBIajnn3xqY3E68mCoeya3QHH4RAmdu138JIumtxac8JarbqeuQV1z pyH9xE/lqpZMhbtDRX5xZTMAeudJ2CbY/34AQ6Ruw7z9h0m9eKl0X0etqb2qqBc13Cy6Y1d8q7Tl 1sVScZB/S9HOo3I6dtCfHgCJG9G/VPfFLlKuagDQdKfGYaAbnVcYwoMLABc/Cf1A1zTG+KwDYJin PX0UDX7L7jPM0x5AUKCkqERVXNnMVg59lVpEkMugIaFBbuo+Uf1MATGS+YgNtZ8dPThxzniDdEsj dN8crqXIZPIkxz8s/62NxMQMsI6BIaiOmYputyz+RVt7VOKXebkqeWYCMyGUwWaWBvpaqZSXJvLS xp6Dej+LbtQAqKpW7f+uoulOjby6hX3bod8p/MNGLZwxGcAwqRcAL1c7dzcnbntsAy0AEohkhuSG sqaw9LZDRT51pNH9SNLJwAbQ3l1c2SyMrDLoa2hwY4C7mHyOcSMHebhLDH7rIXFyG+js6OziBHuq iixTVlHLFxVDkkmLGdsqCQOAFPzk1S1U3CysRjOoOxXBLqdAvvofp6nrkHygEwWNQhn/KSGOsx97 cFzEUFuzNBTKZu/D0gTv15c/YvIYnVugoNcYP026+pW3xg7z6f3VdhBrGhhCrand8m3WOx/uC/YE jXDwefxAvUL1U+ZLQVKNwZ3ZZ5GOKtRGQ59Fbml6DfJ1qlQaANl58uyiejI8AOj8SGhGt/boAAj2 v3+I1A3AMG//CUN9editW9GqNerqGk2FWstMSMbFEgDkhrK/iPHxn8EEA81DG/Tv542n/1rsEFAn XHZRPesjJkP18rzhHu4SD4kTNX6dyr5J62ceD70Wk+d62nZJ3O+VpwJZlKwROqWyukqlIU0m4b4R EeRiC8G0MmVV1nn7Xf9NZ2/FvmNKg6YOdk9qfwn2xPY/vTDmodHWWG8nsL6BIc4Xlye/8Q794cnD bbn8gvmHlCmr1mz8jpVIUfiVF55ZEfJ4mO0hp4fJ3rD4Bp2RY0PtyfZAb34e8NEEDhiqc/b1crXj FuhufjEhJFN/Q1kDoLD0dunlHPP2w8AvEfor0Ct90S0B7mIADgPdKPzF/I+iGtcgNzXdpyshJmre oo8EeU4U3SKdsdAQXyaVxFyZ2FB7WhW5L5T1efY3IUKTIGyno+pTgzsY0Aide+xXwZ6taRtmMq1S ScSUj+ndILvoNtB50JgdTACF3ZNMC4DViQG9rypmGbZiYADIK5R/3fQuqx8zacCNoS73PQd/ZPXN FDrjhWe2QyN0jhCR90nFbPIbtwxCbTBKIFPKh6Q/vVx/MTYVaq0+BEfKbNR82ketUavloP8YuyCl l3MuB0xwungGZv0PkzCjAr1/AIBy4Cwh4ejsAqDnXP/cAgULrlKoilUHMD0Yus+HO66Rb0Ff4Zfn DZeX1WUX1VOHJqlsGZuWqwU3KVjUwcYGKm9Jejs7fWukh7tk+95rrAO0Nxu9WcxfqHwsjNqJwz5e muC9MeUJCGqUASyaLl254KU+1NBmQwYGAKC9cCV3665t7DDSQY+EVeLSWQD6j0tIsI/V/V9OW5DH Qz+zTM+5S7VkfpiaiPAAbgClnTWjJ4TJz1wOmBAmP+MfNgoAFSMYMETqdkNZQ//Sf9mvAhx+CcbK m5wCHDQhgUNL6q4HDhgKgP2gc/YVNdwEUHTHrrm6UN7kBKDk3GEAMXHRmipo1FepMirQP8zePRj6 pFSxsgJA5qV8egryPJjlYJhMiZu3K7RfC72QcaN8yX7QLR4SJwBSqXuvBZBp9ySbQVWgLK0S94hX SLCPVOoOQKmsLigsZ8qEFLOiO1A46/X1uS5+kuRJjsZDX8gZoutTa7b5SBftD6zNDvrzK93+aZYd KVqhjd74boQU9YW55C2LA41z+GRg3n/z1weON//v9iPU3dK3TAthawamFXmF8oP/Ht20Lo0+dh3/ k7OJ04TwuMR9mj4Exc3pZwq4CamqVlXc9me7uY9E7OQaqlFfxd2Vr/QrdgsVOwGgEFC5qoEVHZGh EmJ8S1egFIKw+IqenX4Wxg9hFNQi4R8A/i1FYu/RD/homPGAPmc+0HkQkxESwY793MtknM6nABfL lMx9POahIDUASpHSYZwVx9N9KEQWNMSt5k4Dbb70FxHmUQyegiJFJONo/hBJze30dHRNAEs+KhFO 4gLwwaffUx8J/d0XTZemLB/fjcF2YWEYgORJjuNG+UaEB3hInIxtfyN0zmGfULIAwKLp0vmPz7b9 dItJbNTAEPIK5frP/sFUdzr4Jx8Q+yULaDKHBnq9inEjB9lgAQmn38Bk4ljDR7mqhWwb21WNPRXa Z/uimApzJsgRMelP0PZK4rYAmF9Cr1TYpg4gfprUZIg743Q+awrpSGxDOH1rzUoZO2L+++szf/uq xFhMJON0fszCrKUJ3gA2775lUovFAjJO56/71v5Q6nHot6AVz080c9ncAsX2vdfYpteb0yd7Aps2 MIRQ+b8jDixVOc9MnHpg9XDoFWhYaodYkRwSEeRi7JlyOB0k43Q+NQ+S+Juw3tckQo+EbAkAWx4j T9lN1iBpYPkMgtJkIw26oSnhIbQrNI9SOMR3T0YZU5B6Nta02RDOO9mwwnS/oRDhHh0/Tbpj3XTh NWelXHOoyE/bNNvgUUxAJH1rJAAyNpQFsQDSDWMNfEKD2hYGFvS151/vs5nFX+gDBoYwMDNm9GPI wCz74xP/WOgtvF048YxBloZra3LahaqV5GV1FOgw9kJIKwVAwBBv8kUo7GPjWUAqvqiqVlFS3VjZ gUGdGWzQhvBG47Iu2iuhP7YLY9QUtqLsuvFvTV6n4xq4H3z6/evrcwGsWSkzaa5of4DekaI/VsDg Aecu1b6+PpcK29I2zWZ6Ip06ARj4ah0pHBBKWNLLTHh8aZ/2WoT0GQMDANDmFOyiAW0A2pJPoE8Y 82CMEZ6bGPTBMildw7lnITfFYCACAArAAogID+grDVjUvUROCRXybTvViLvjdUJJMdp2qSsl67w9 pZrpbtQSMG7kIINpgUJZdHqLDOSdyLdgU0xo8zWZNBIe58m0mM8tkbQruVNrVsrMVCob5IFMmtLs tDgAEU/s76ATwyqwmSR8u9XS0JsWModLE7xj4qKfHBffD7wWIX3LwBDanIJdVGQCvd8d94gXszT/ /vpM0tvZZgwMQf77uZybBtEzdqTqE6oSnO6F9SXAaOel0JaN5/CoOMLYisCUIaEeFDIkAMZFDAWw 58AlAKSLCr3GlwEGKoIGlVFLE7xnP/ag8ORHvghJZsFsoFvotbCAmHnTItym2VRHC96u7KJ6Erqn AcPPzZkwKvFL8mbMPDUrZqNb1qyUdUTrk7XiQ59zsimFym6kLxqYViobsg4c+I75IizCSxmX+GlS M58MIayp2OCUCr2xCfQPeyhI3VcOqpwOwhq8qTaaJpkLm+/YKZ4qa23hry/UUKiqVgE4d6kWAOt4 ZzChlyavEVF+1UxfEkBEeACAK0WurAyvrRwSa0jKPJHDhOKFmXMAVHwFfXe90GWhPI2w22N29OC2 lDFPnr7MysOoD8b8Ns1EPeghi6Z3otbUPANivyT/Y/jc9ORJjgYeDGvnoh4dAFSnauzPGcOUFQsr W9+uyClTgqUT+6VpIfqwgdGjLVSe3r33uIEQffw06ZebnuzUpkA7TvqJn4wDaBCoGHm4S7ix6bsI la+EERKKkdIOaF1zwiwf/Zf8bKESj0ERM4CgQEncI15M+It6X5gdIs0VCCTFWCW0UEnMYEjdHx9t ZhXAuQWK+auzCitBQekyZdXSP2dSDwqd6gzcfeFMdIpxtRVLpD8HUw/rSEeBwcD1diuVO0Vdg5q6 6MmhoXYZoUKV0BJvfzeig0ozLDYIIHmS48K5yWMekvVju8LoBwamFVIX//Pm/8c+AUx6wYIPH32I TaZz6cobVowAwBs5+wrGrXa0vbKtufcjokJDQu4IU9YxaDJlrZTUR0kuCADWRUE7IN0oVOpjz8Vk VwKGeM+Y0jr+hxQkWf88mQqY0oOhijKKXGWnxYWG+J48fTlmYZaBnAnuFnAy/wUUTpXvoJ0wTuF0 e7iSGukoUEZPQX6V8DPz8rzhFO4TCvKahGJopDMCYNF0qe2MAusd+o+BYcgrlGeu30xZv4Wd9ajh K3JsswUn0zJl1bnr9un7M4SarAwWmqcvLfdsbA2mJETSALQxmf97URiKfjbu8WSYHxhB6jhsDRD4 ExTuJxsAwCCuRQNRaGwX80iEOz6zJSZVD9h12OwvugjzaehRM6YEVlWrYhZm0f2NsyYQDOE2GIpK hVWU6WQGxkCxifIKJt8iuixZeuijYebthPBw0MGHdBZa1ZUi113/TTeOXjC7wkzgyrUZnxxRXttl It/Dzg3/2nGW5tYEe+LNpOn35szyfmhgGPIK5Rf7PqH4L91iJgrcLsKQPSvBNID5+LxAwOoI++yg r0kdN8qXKqOgDz0BoOgTQxiGMu6uF94i3F8MsiNs64fAHSHasiLUky9MYDD/RhglE17N5KVIYUxo 3oRbP3ssNYrvf28E5ahZvwhttUKRLra9AohZmEUGZuXajA3bCuSZCSwRwhTD2opxCUt4yblpt6uU cjOsCYb8oW4MYJLpulLkKqyRY20rAKqqVVRHZ7BjkH2tvTDPQMCG2vUpeBjsiahHo1Y9HnsvK7f2 ZwNDyCuUqWfOZR05yIJdJpvCOgWV0qdvjay47X8m74JxRIIC+qQ93rcas/sH//76jFDEgTBWpGe3 sLFaBtLCAAKGeDONGZqp5SNxLlc1bNhWQOcV2vpZjl046op2f7JqAGirMrk/Co8vFChj094gKPoS 2hIDg2QA2RVhg33ypNYMYlGNa/r+DNZUKIsYfeDAd0lvZy9N8KaJYazSgXLX7NhepqwKiNpNBoa+ AtlpcZOWZNF7uDTBe9woX5PfKWGZmUnZSmOo7JhZo448pOMI50vRYSJ+mpT+4hSBbPc7S/aVKb4b pIXmPxs/beSYscOk96xdYfR/A6NHK6+oVlaVpv90M+NiCVXFsO/ty/OGt1sBIoSasGjmJt3C4gk/ 1Ay9ceGkMHNDU/lsZ/hE/4a10y5N8BYNfRiAf0sRk2wh1TKv+0tr7PyNFb2EB3/odw3otV7Ypk+w eWtMYYxd3Iwhwd1aMiz3LrzDME/7oEAJXTNkVFiQm9rM1QygOiWqCoO+sitg8ADjgBKzwVQbRkl7 ACuSQ2horLEXTvkJZmAKK3FtV0xA1O74adIhYybTx570vtgzsi5CAB0UamLWqLCy9SHdlelkygLQ z2llpeed+vpDvwPUXpi3ZUcuvdvkryRFR9vy+K/e594xMIaoNbX7M9J/t+4IswQUie7IR42Ob7rL S9oqzyfXmwLu1FJgkHFdNF0aEeRiy0ohfQ5W2kQZ48kTw+h2pbJaKnVXKqvdBjoDoPyKMLUuHBdP +xraaIIRtox0UOS7saGeOkuMO/vYCHBWDN3ZbTTjdP65S7UUBiRNiqS3s6EvbzGphMTEIimiBaCw Eqe2RG7fe63pTo35pkLyYCjvMiD2y2BPHNwYExC1m03WELZ30JtGP7fVVG+AsKedtIS7Jc5sIOFB b07A4AGdNSpCaAcgD3hm4tSFMyYnjJd1fan9j3vXwDBSD38zd2Wq8BaTTciMugb15KQDebntj0Qz gNrC6dwqLAkFuvmkdg9CMXHhLR0c0WjwEDIkAEjrhQXfOyJRTFEpyr4YNMkLTRS61v9vXN/IZvQt TfCmORfML6HFC3MDdBGqj5o8Mez1tccpWb1m43cOA93Wvxpt/qkDonZT2fGSj0qowTnurXyDXLew /dBk+YDJKzMXqi2xy04hbKxh3Z0RQS4WR8UJstMQZP0AABNWSURBVFX0zs9MnPreUxP7qMhxr8EN DKAvB6BmYCEmk5ZlyqrHlqdbYGCEMGGrclWLsAwBd/s3ttw0biMIG7lZ5TG5Bew+Qr0GsugkQgVg 3MhBADp7mGVCkMbuKQQFBQC6649oIDmMu3MeNKWRHfyFne3CQaKrEwN8JGKhZ0MKj9lpcav/cToo UGLewFCPCPsvOUDGve6N0DnB/g9rj27YVmCQBjeGqcuYESXrOEKJSbqF8mRdlLVl4mkAFj7D42Cd wL79u9wDBHhJX3v+f5bNr939383Clv68XNXruSoafETh7JgpD3TLMzpCxI51q55/WGhvdh6Vk6IR ACBLuCHauE5J71PXoH7jf/+PjMeK5JC29sdy1ffAre3vRliw0bDsmnCAvEGYi3TJeuJAwHIqv0gO J5oQI3GEqO7o008s27N5961xoy4tmScbN3JQzMKs1nqtxRFtJa7HjfJ10WvJsFk1xgjn9aZvjSTP oHUTl0mENdm0GB20nxxRuvhJzLwblGthwpRdyeELc+wAXPwkZioOLLhsYSWipoyqONC3lfOtAjcw v+DqNGjBnDcWQAuA1AEyFe6ZJ3IA1CtU+xTU6pxtQeylXQzsDfQJSXZA3nZKUr+bHKwsZu1sSsWk 98k4nc/krYw7/oTIb9wCkF1U/1x7bxQ5CqTiRU0MBoOc9bXOI3qhPrAROjY9TzjRxBhKxlCxQNLb 2RHhAVSy3G4mw2A+mwEGsTWyVdETR0RPHLH+VQBYuTajqERl8uNHYbq2Lrt641kmp29xQIwprzC7 siI5JO4Rr64kV6D/6rExBO+8HP9q3HReD2YZ3MAYYwcgWDr5tecnv6a/iWqdbyhrPrrSAP2YW3HY xzRwMyLIhbTZu/H0KgvxY9+613NVdUefZrWVVNGkF2TMEirg0v2pi7B/9+KQdQn2xJRJ3ttONUaE B+QWKOhXVFsRMHgAeYTQd7ps2FZAneoArhS5lpReBlCuaqBx8azhkbXN+4eNetav2kdioRhEd0EH GvmNW0Cg8PYyZVXWefuS0ssUYqXK+GdXyoSR3tmPPdjuZ6BeoZq/OgvAJACCQS/UXwkgNtS+LXnK iCCX9PPKuga1cec/AMpmMQymOpofumEMK5xhWS7hq+6IxKRJhNpirAojXCbhobBugRuYDhHgJX01 7jEAGwG1Zs61osJt31+lusy81nBWtlDMqif2owHOrrIQV/aFZB3dh0+UUE/fiYLWon4Wfye53BlT As23nfc5ypRVcW/lAzi4MWbn3oL63bl00jfZ6UI/UDaCNW3g7uaSmLHSDY94mWypsyKNDfWUUXdy nT53Zeq2U1mUVxcKE+iVviKpaqAROqoJpgI51sXZFpSpIg9gJ0AfJJZs3/9e+/IthZU4l33dwGmg TyY5jri7xTJ+mnTL4jYraAxghypS82SeSmyo/aLp0rhHRlgWk2QKLsK3kT4MbybFTB4TeS+3RnYv 3MB0GlenQWMeGj3modFYOFetqf02Nz19fwZ9UvNylfuOKV38SijV3KkDWluwb6kBg6Ueg6UAwJ7C uPf7REHj0VQ5yyHR3Whh9LNN7acdp0qloWOm20Bn+Y1blFR3GOjGXheDJFLWbPxOXt0yzBNHrzZT FIV2XhuX9hng7FqvUAGBv53h9lBQ3PzVWRu2FbDI0qLp0qTfRBr7qWRBSWXZDOQQlKtaKLuekirP y1Xl5SJ+mtR8OE5IzJQH6t/OjnsrPzb0mlBJhcxbwBBvA9OyYWtkuyaBuVB7MsoMjMqzK2UWn5aY AyQsLYufJk2e5Bg5KfHh8QGB7mMAcbvX4XQKbmC6hKvToCfHPfnkuCeZqDN1Xe07pgSU1Owd4C6e /diDFpcgy6tb2DHcPI4QCa3Oc3N+0UtnDX2Flag/VsCKCISGhzrO2JnXxjdfAIWVqLnTEDDEG6fk m1LmmCkjpk77mLHS4Eql+UIpK0KndQCsmV/4W1mI38ntswaN2bE0wfv388a3+9eh6riqahVgaCcM mvwBzJgSuWSejJ69U0eiwVKP7LQ4EuTftzCLCcDQp+hU9k1KkHTEtAhV44SdNDHJIUm/GW7xSYjK Z/Yc/JFpCbaKE/4xcdxYr2DpRADcWek5uIHpLuwobQNAXqH8sSiV9gj6qlB3ApPF7Oy3hVRMLMAR ImEuh+llsQ5QijwAKKzEvmN3VWlThpZKfpk2iU0VFNQrVFnn7WdMCUxJlZcqK8y8pQHuYtv5qAtV y1h4E4CxbjfVATNod5792IPmbYCLnyQ7Tx4weICLn4Q2enVT87Ufyy9eKtubWSYWtT5RuExCh3c2 60gWYknGjj5gz80OVanqV27ITno7mwphAFDT65qVshXPTzSpjnP5atnNW1XfnqkuvqEStvVQDZjF smNaoLKq9uQPJbsOF/2Qd7tE0eA62D0uYuDTMSGPT4nxkPjdg6KT1oL3wfQcWgA5BbtIohWCHYT5 DaQVb74S7IllewB0cHiaBVC3OdvyIJBWZLKPdLtBnC3uES/o9bUGSz0aoQPQa+aHjV5fkRySfl45 zNO+rfE/jdA9veyb4srmKSGOJwoac1Kf7p0VMo8EACvNgEBME/oUEb2rAe5ih4FuwrEuQUPcfB4/ IJxFLw772PyU+EbonMM+YVf+81yfT76trqqsr73T1FzXqqjm6CBe/fvgUeFDBjjpBg1wHux7//2D nB0dHITXaWnRicWilhadDjo7cUcDRw2axis/lV2+3lB4887kke43b6oenfrgndqmphaRl+Q+VU19 eR3+/q/zoQ+47DuquO8+0bmc2wCcne3GjPaYKvOcMclveLC3xO0+eztzLoVI8FfW6f9pAZoam5ub tY3ADxd/TDv0U8a1RndH3bgIr+efTAz0Cxrocl8HXwWnG7GVY11/xA7AqJB5o0KQOCMeQKHydE2l S97lw2wWHkWr2NzA3464DUBYI9AIXXFlM1Ng7AkcIXJ0dh3g7DpYf6qj8BpMKQSXqxqu/exXejln 37ECegmE0MfyDxsV5VcNfTN80BC3mjsN3e76rHh+ovzGrc27b9GY26NXm68W3DR5tG9sqKc9PWas G2CoxN51mLYYgHJVS6bC3aEiXzhfkslokjs4CTBQ0Tfje1EOhj0ROpC3B7BmpYxiUx990zxzjMuI Jx5u1Gi0P1c7tSgVN1UisSgiyHXSKJ/77nO2txfb2bXaj6YmrUgkatHpmrUtLs4OAMRiEcz+1XQ6 nUjUeoeWFt3t6rpbZZWNdxoPHL7xzvqLjna6+ClFOVdv/3hDLRKJdM2acSPd3n1lSnOzLkrmWVdT 9/PspgeCvEqv34z99dhbFTVNzbqBLk5ikVinA6Bramp2dHTQ6XRabYvYTtzcrHVwsBdDpGtdkwgQ iSBuQcMtlTrzzPWcS+V5RXcuFdTduKkJG/NAyvOPxEwcf/9AN5FIxBbJ6WW4B2MVKFtwvVBZnnXi hPFYs6UJ3qytcnLSAfODwXsNJpeScTo/ZmEWCRlQMxrpSAIwmB0iRCjEUq5qYM32pO5lQe+CsMuS rk/zFo3vSQuOnyY9erW57qjlHoxQp7Jc1cByxQwqN5BXt8yOHoyuScIQQpeFXgUT/jKGumFeX5+b nRbnIXFKP/HT0CESdX1LU5PujropNFg60NXZ0cne19NFLBbZ25nednU6mNmNhduFToc76iaxGPc5 2d2+01SiuJNxRrH6bxkNuvtkwc5/WDC87NbPnx8sv111+4U4t9s1DdVVtS7+sphwx5oWycgHBrbA wdlRFBokcXJytLMT6XS6+voGFxdniEQiQKfD7dt33NxcNY3aH4urJAPEXj6ejg5iMVpt3qVCxcU8 +YubSxoU1fYuDo1qzYMPDgwY2OTj6RL9qylTIx/x9/V2dHAQi7lpsSbcwNgIWrVGvT8jvaT0MpMQ h764NtgTG1aY3jqtAgnxmt+pRbA7djqXapmEtgcwHLXCMBDsAtARCUgWKyNM9vNTlIymdHTQwDAp ZdbALwwVQq+jHBHkAqCHpiyTNAt7RW0ZGIM+9nCZ5OT2WR0v3hV6IQZotVqRSEx7tFar0zRpAVFz s9bJ0U4EnaOjPYB6zc91ak3GycKqO/gh/1ZpDUK97R2dXR8eN+S7C4phkiZfH8msacNcnVzomiz4 Zrz1k7PS0qLTarUNDU21teo7deoWsbi2Xnyl9GevQeI7t1XZxT8f/aHiJyV+VqhGyiRRj0bNj5oa 7OHoPsgVEDc1i+zsxB2P6XF6Gm5gbBbt7rP5mZfyM7/NFIbsWbyepK6s0gP4waffp6TKu+IKEGwT J1gLnsleFlZXSjNRmPfj4S7JzpMLlS5JydHDXSL0Hkhq3tjA5BYoqOQBABV2s9AWm+zCzJ5BO21H FDC7CKn2Mp1v57BPmIGh+ihyWaCXGjMjWiw0JDodfe91IpG4RdcivjuI1NSsdbC3a9bqmpu1Fbeq fXzd7cStkbSjmTnFN2793OT44/XbxjNeKdhLU2QsOw+pf266fL3yp+JbIq0uLUP+5eGbAAb6uwdJ 7a5cvm3v5fagp26Yp/2zcTGTxzzi6y4BRC1AS0uLPTcqNgk3MH0DtaZ2y7dZN5Q1haW3Sy/nGOTe SamM7bk9rVf2waff7zwq77lsOSUbau40pJ/4SVhuEOwJ4QtvF5qOzN4WKsxdnRjAxqUYOyXPxgYw weNRIQE9bT/aRRgGpEHxa1bKfCRioXwnFS7LQvyMDZ5Oh5aWFp0OYjuRWGBCmBvR0tJib2/X0qJr 1rY42IubmnWODmIAqpqG0/mlP5ZU22mbXZ3Eudd/Npg1AIFsaFfOOqwUgnrpDaKOy+f6jw3zjI0K raz4uUnrEx7u7QQTdktnPlPEsR7cwPRVzheX/3jte4366n/y76f5acLfkg409Jn27lXNWr46rV1p 956G6RkDYIrUQl/HPExfh4Y82risjlC8i+jgVFaDeJQwv0KuGwTjcCgYKBzNaXA1phJtwSdKqD8t LI43sFg0tmuI1C3mAd8xD40GbulQJkII4MqNSF+EG5h+Q+vIzoKS6yWllzMV7qWXc6D/Dgt17IWP CfQPowmMndphl69OGzfK14y4ZO8zIPbL1YkBpBNKUAkc29QAtLWvEayblZIr0KsLC+dUAqiqVoUE +8Bs6VcPwSKKbfkKQikHAFXVqorb/hr1VXr5bCinyYlqEJQCUtWiBdNrmHzRlSJXel56UvIX2VP4 h41iD4keHQggwEETFx1jSqtYC2gBx3afmmObcAPTj9ECkFdU/1CSdeL4BeHmwhDOdSbhMlZBa8bk PLFsz+zowbZjYKj5w7ygMiGCnQbNtAszTcyK2/5n8i403amhhkcAJlNBQshgB7iL6SHCriC6g0H9 MYk/SqXu0LcKCY0B3RlAlUpDw5tpxAvdgX7LzAZBStusSZNh3K3JFsxEPAGQuoRwtTQx2gn2ADoS GKTlFRSW7/+uAgC9ewbP7uIniZoyKnp0YMwDvlIPf3c3J1cnV942f0/BDcw9hRaAWqOurtE0igoA 1FS6FJRcP5N3wXjSibHJYZ38tmZgqNqqIwamI9DWibv3dGoDGjdykLysjtJC7FSONqJJ0HdQQm+x hFu8cbsl+5nuxu7QbtxP6H/Q9VkdRER4AN2n3YYbkzCPhL0JJOXCXpRw/dTL9dx4n5DAoVIPfwBc MpLDDQyHoSXbc+b6zeJbpVlHDhoElNjed/Rq86LpUlKWpMMv9EImVqHjHkw3PiMZIXrtlKa+UuR6 Ju9CRJALpRkA0Bto0CdLxoZVAxq4IAR7oPAOQYESujgLbNLtZDzIBbGsVFo46eDcpVpaPO72h4SC eLT4IWMmJz8cyl0Tjhm4geGYoTXIVqHWFisrMi/lsxo2IQad6tArLRr3nPeQgGbvG5gOQuVwzPSS mg5ZJvN9M/RAR2eXxob6brHcBr4I9EE2liMxTrYDrR7Jg8Mf9nJtNR7clnA6BTcwHAvQqjVqAFcV 9cXKCgBC29NWMMcgDQCjTIAQ5hi1KzNDWmqDxuwwL9LVn6ABXwYpfYIVhlEcj93eVm4G+tqwyEnR DwWpAWi1I4YMU98nknFDwuk63MBwupHWIBuACrVW1HCT/cLOLt9grH1sqL2wokkYgWH/pcYXYXaB mB09mInT0A9Jb2evWSkz8JxsufiYJilAbxIYHu4S1vjJ2kgBZBfVUyKdomeEycYUY6i/B0CpOMi/ pUjsPXqYt3/QQK3O2VfUcHN4UDC3JZweghsYjrVgpUpZhUp7AE5QAHAb6Fx0o4YNFKAq4ZLSy1Rk HDNWSh1/QtpNgBM0lIxpoBGUL6FUB+kjMNPF7mBwTR+JmN1IdVwB7mIADgPdSC/ZwIIyAxngLiax HPNrNvNCmJgbWwkroR4gGeY2UAfA01kL+OvvMpRbDo4V4QaG0y/Rni9WAqDUEYDC0tsADHqDhA/o 7I5vBoOqMOH1acRLYSViQ+0jpz8GIMBBAyAkcGhByXV792ByLLxc7dzdnABU12jc3ZxMNYhwOH0A bmA4HMYv/R9qjdrVSRhesxMWeQMgAwBAcDc73NVBYvBfdgt3KTj3CtzAcDgcDqdH4BKkHA6Hw+kR uIHhcDgcTo/ADQyHw+FwegRuYDgcDofTI/x/hOVcoIk0a8MAAAAASUVORK5CYII= "
       height="479"
       width="640" />
    <text
       xml:space="preserve"
       style="font-size:24px;font-style:normal;font-weight:normal;text-align:center;line-height:125%;letter-spacing:0px;word-spacing:0px;text-anchor:middle;fill:#000000;fill-opacity:1;stroke:none;font-family:Sans"
       x="380"
       y="852.36218"
       id="text3117"
       sodipodi:linespacing="125%"><tspan
         sodipodi:role="line"
         id="tspan3119"
         x="380"
         y="852.36218">Linear</tspan><tspan
         sodipodi:role="line"
         x="380"
         y="882.36218"
         id="tspan3135">Accelerator</tspan></text>
    <text
       xml:space="preserve"
       style="font-size:24px;font-style:normal;font-weight:normal;text-align:center;line-height:125%;letter-spacing:0px;word-spacing:0px;text-anchor:middle;fill:#000000;fill-opacity:1;stroke:none;font-family:Sans"
       x="166"
       y="852.36218"
       id="text3121"
       sodipodi:linespacing="125%"><tspan
         sodipodi:role="line"
         id="tspan3123"
         x="166"
         y="852.36218">Booster</tspan><tspan
         sodipodi:role="line"
         x="166"
         y="882.36218"
         id="tspan2999">Synchrotron</tspan><tspan
         sodipodi:role="line"
         x="166"
         y="912.36218"
         id="tspan3133" /></text>
    <text
       xml:space="preserve"
       style="font-size:24px;font-style:normal;font-weight:normal;text-align:center;line-height:125%;letter-spacing:0px;word-spacing:0px;text-anchor:middle;fill:#000000;fill-opacity:1;stroke:none;font-family:Sans"
       x="555"
       y="682.36218"
       id="text3125"
       sodipodi:linespacing="125%"><tspan
         sodipodi:role="line"
         id="tspan3127"
         x="555"
         y="682.36218">Storage</tspan><tspan
         sodipodi:role="line"
         x="555"
         y="712.36218"
         id="tspan3145">Ring</tspan></text>
    <text
       xml:space="preserve"
       style="font-size:24px;font-style:normal;font-weight:normal;text-align:center;line-height:125%;letter-spacing:0px;word-spacing:0px;text-anchor:middle;fill:#000000;fill-opacity:1;stroke:none;font-family:Sans"
       x="575"
       y="1032.3622"
       id="text3129"
       sodipodi:linespacing="125%"><tspan
         sodipodi:role="line"
         id="tspan3131"
         x="575"
         y="1032.3622">Beamline</tspan></text>
    <path
       style="fill:none;stroke:#000000;stroke-width:3;stroke-linecap:butt;stroke-linejoin:miter;stroke-opacity:1;stroke-miterlimit:4;stroke-dasharray:none"
       d="M 160,260 150,215"
       id="path3137"
       inkscape:connector-curvature="0"
       sodipodi:nodetypes="cc"
       transform="translate(0,572.36218)" />
    <path
       style="fill:none;stroke:#000000;stroke-width:3;stroke-linecap:butt;stroke-linejoin:miter;stroke-opacity:1;stroke-miterlimit:4;stroke-dasharray:none"
       d="M 340,285 260,260"
       id="path3139"
       inkscape:connector-curvature="0"
       sodipodi:nodetypes="cc"
       transform="translate(0,572.36218)" />
    <path
       style="fill:none;stroke:#000000;stroke-width:3;stroke-linecap:butt;stroke-linejoin:miter;stroke-opacity:1;stroke-miterlimit:4;stroke-dasharray:none"
       d="m 520,200 30,-50"
       id="path3141"
       inkscape:connector-curvature="0"
       sodipodi:nodetypes="cc"
       transform="translate(0,572.36218)" />
    <path
       style="fill:none;stroke:#000000;stroke-width:3;stroke-linecap:butt;stroke-linejoin:miter;stroke-opacity:1;stroke-miterlimit:4;stroke-dasharray:none"
       d="m 460,420 50,30"
       id="path3143"
       inkscape:connector-curvature="0"
       sodipodi:nodetypes="cc"
       transform="translate(0,572.36218)" />
  </g>
</svg>
